<?xml version="1.0" encoding="utf-8"?>
<!-- Generator: Adobe Illustrator 19.2.0, SVG Export Plug-In . SVG Version: 6.00 Build 0)  -->
<svg version="1.1" id="Layer_1" xmlns="http://www.w3.org/2000/svg" xmlns:xlink="http://www.w3.org/1999/xlink" x="0px" y="0px"
	 viewBox="0 0 155 55" style="enable-background:new 0 0 155 55;" xml:space="preserve">
<style type="text/css">
	.st0{fill:#E0E0E0;}
</style>
<g>
	<g>
		<path class="st0" d="M153.8,36.5l-10.6-22.1c-0.4-1.3-1.4-2.4-2.8-3.1c-2.6-1.2-5.8-0.1-7,2.6l-10.5,22.7c-1.2,2.6-0.1,5.8,2.6,7
			c2.6,1.2,5.8,0.1,7-2.6l5.8-12.6l6,12.6c1.3,2.6,4.4,3.7,7,2.5C153.9,42.3,155,39.1,153.8,36.5z"/>
		<path class="st0" d="M120,11.4c-2.6-1.2-5.8-0.1-7,2.6l-5.7,12.2l-5-12.2c-1.1-2.7-4.2-4-6.8-2.9c-1.2,0.5-2.1,1.3-2.7,2.4
			c-0.1,0.2-0.2,0.3-0.3,0.5L87,26.3l-6-12.4c-1.3-2.6-4.4-3.7-7-2.5c-2.6,1.3-3.7,4.4-2.5,7L82,40.2c0.4,1.5,1.4,2.8,2.9,3.5h0
			c2.6,1.2,5.8,0,7-2.6l0,0c0,0,0-0.1,0.1-0.1l5.3-11.7l4.8,11.9c1.1,2.7,4.2,4,6.8,2.9l0,0c0.6-0.2,1.1-0.6,1.5-0.9
			c0.7-0.5,1.2-1.2,1.6-2l10.5-22.7C123.7,15.7,122.6,12.6,120,11.4z"/>
	</g>
	<g>
		<path class="st0" d="M38.8,31.2c0,0-1.4-1-3-1.6c0,0,0.3-2,0-4.4c0,0,2.6-0.6,5-3.5c0,0,2.2-2.5,2.6-6.2c0,0,0.3-3.6,0.2-4.6
			c0,0,0-1.2-0.7-1.8c0,0-1.1-0.7-1.9-0.3c0,0-1.2,0.4-1.3,1.1c0,0-0.2,0.7-0.2,1.3c0,0.5,0.2,3.8-0.4,4.8c0,0-0.6,2.7-2,3.8
			c0,0-1.6,1.5-2.5,1.5c0,0-1.3-2.4-2.6-3.5c-1.3-1.1-1.9-1.6-1.9-1.6s1.2-0.8,1.6-1.2c0.4-0.5,2.3-2.9,2.7-4.6
			c0.5-1.7,0.9-3.8,0.9-4.6s0-2.8,0-2.8s-0.1-0.7-0.2-1c-0.2-0.3-0.9-1.2-2.1-1.2c0,0-0.7-0.1-1.3,0.9c0,0-0.4,0.4-0.4,1.2
			s0.2,2.8-0.1,4.1c-0.3,1.3-0.4,3.2-2.5,5.1c0,0-1.6,1.2-3.3,1.4c-1.7,0.2-3.4,0.5-5.4,0.1s-3.5-1.3-4.2-2.1
			c-0.7-0.8-1.6-2.7-1.8-3.8c-0.1-1-0.3-2.8-0.3-4.1c0,0,0.2-1.3-0.2-1.8c-0.5-0.6-1.4-1.4-2.7-0.8s-1.3,2-1.3,2s0,3.6,0.3,5.1
			c0.3,1.6,0.7,3,1.4,4.1c0.6,1.1,0.7,1.7,3.5,3.9c0,0-2.7,1.8-4.4,5.2c0,0-0.6,0-2.2-1c0,0-1.3-0.8-2-2.7c0,0-0.7-1.3-0.8-4.1
			s0-2.5,0-2.5s0-1.3-1-1.8S2.1,8.5,1,9.7c0,0-0.2,0.4-0.2,1.1c0,0.7-0.1,2.9,0,3.8s0.5,3.5,1.2,4.9s1.6,2.9,3.5,4.3s2.5,1.3,3,1.5
			c0,0-0.4,2.6,0,4.5c0,0-1.8,0.4-4.1,2.4c0,0-2.1,2-2.7,4.2c-0.6,2.3-1,3.9-1,6.2c0.1,2.3,0,2.7,1.2,3.5c0,0,1,0.5,2,0
			c0,0,0.9-0.7,1-1.1c0.1-0.4,0.1-1.1,0.1-1.8s0-2.6,0.2-3.6c0.3-1.1,0.7-2.8,2-4.2c0,0,1.2-1.2,2.6-1.6c0,0,1.4,2.3,2.4,3.3
			c1,1,1.5,1.5,2.1,1.9c0,0-2.3,1.6-3.3,3.5c-1,1.8-1.8,4.8-1.9,6.2s-0.1,3.5-0.1,3.5S9.2,53.5,10,54c0.9,0.5,1.6,0.6,2.8-0.3
			c0,0,0.5-0.7,0.5-1.5c0-0.8-0.2-3.5,0.4-5.3c0.6-1.7,1-2.4,1-2.4s1-1.9,3.4-2.6s5.4-0.5,5.4-0.5s3.3,0.1,4.9,1.9s1.7,2.8,1.7,2.8
			s0.7,1.7,0.7,4.3c0,2.6,0.2,3,0.4,3.1s1.4,1.6,3,0.5c0,0,0.9-0.5,0.9-1.4c0.1-0.8,0-5.1-0.5-6.6c-0.5-1.5-1-3.6-2.6-5.2
			c-1.6-1.5-2.2-1.8-2.2-1.8s1.3-0.9,2.3-2.1c1-1.3,2-2.6,2.2-3.1c0,0,1.3,0.4,2.1,1.1s1.1,1,1.6,1.8c0.4,0.8,1,2.4,1.2,3.6
			s0.2,2.7,0.2,3.1c-0.1,0.4-0.2,1.6,0.5,2.2c0.7,0.6,2.1,1.1,3.1,0c0,0,0.6-0.2,0.6-1.6c0-1.4,0.1-4.9-0.6-6.8
			C42.2,35.2,41.2,32.8,38.8,31.2z M21.3,17.9c0.8-0.1,2,0,2,0l1,0.2c3.7,0.9,5.4,3.5,5.4,3.5c-5.2,0.3-7.5,2.8-7.5,2.8
			c-3.1-2.7-7.5-2.8-7.5-2.8C17,18.4,20.5,18,21.3,17.9z M12.8,28.9c-0.2-1.2,0-2.9,0-2.9s0.7-0.1,3,0.2c2.3,0.3,3.1,1.3,3.1,1.3
			c-0.6,0.4-1.4,0.7-2.3,1S12.8,28.9,12.8,28.9z M23.1,37c-0.8,0.1-2,0-2,0l-1-0.2c-3.7-0.9-5.4-3.5-5.4-3.5
			c5.2-0.3,7.5-2.8,7.5-2.8c3.1,2.7,7.5,2.8,7.5,2.8C27.4,36.5,23.9,36.9,23.1,37z M31.6,28.8c0,0-0.7,0.1-3-0.2
			c-2.3-0.3-3.1-1.3-3.1-1.3c0.6-0.4,1.4-0.7,2.3-1c0.9-0.3,3.8-0.3,3.8-0.3C31.8,27.2,31.6,28.8,31.6,28.8z"/>
	</g>
	<g>
		<path class="st0" d="M51.2,26.2h5.3v-5.9h4.4v5.9h5.3v4h-5.3v5.9h-4.4v-5.9h-5.3V26.2z"/>
	</g>
</g>
</svg>
