<?xml version="1.0" encoding="utf-8"?>
<!-- Generator: Adobe Illustrator 19.2.0, SVG Export Plug-In . SVG Version: 6.00 Build 0)  -->
<svg version="1.1" id="Layer_1" xmlns="http://www.w3.org/2000/svg" xmlns:xlink="http://www.w3.org/1999/xlink" x="0px" y="0px"
	 viewBox="0 0 119 67" style="enable-background:new 0 0 119 67;" xml:space="preserve">
<style type="text/css">
	.st0{fill:#4C4C4C;}
</style>
<g>
	<g>
		<path class="st0" d="M34,32.3c-3.5,3.8-8.8,7.2-15.5,7.2c-10.8,0-18-7-18-18.3C0.4,9.4,9.3,2.3,16,2.3c5.1,0,7.4,2.9,7.9,3.5
			L25,2.9h8v14.5h-9.1c-0.2-3.3-1.8-6.4-5.4-6.4c-3.7,0-6.1,4.5-6.1,10.1c0,5.1,2.6,9.6,7.5,9.6c4.3,0,7.7-4.5,8.1-5L34,32.3z"/>
		<path class="st0" d="M36,38.7V32h2.1V7H36V0.3h12.4v15.9c0.6-0.9,4.3-4.1,8-4.1c7.9,0,8.9,5.9,8.9,11.2V32h2.4v6.7H54.6V24.8
			c0-1.7,0-4.8-3-4.8c-2.6,0-3.2,2.6-3.2,4.8V32h3.7v6.7H36z"/>
		<path class="st0" d="M69.8,38.7V32h2.1V19.8h-2.1v-6.6h11.9V32h2.5v6.7H69.8z M76.8,0.4c3.5,0,5.6,2.9,5.6,5.2
			c0,2.8-2,5.2-5.6,5.2c-3.2,0-5.5-2.7-5.5-5.2C71.2,3.3,73.2,0.4,76.8,0.4z"/>
		<path class="st0" d="M86.7,38.7V32h2.2v-25h-2.1V0.3h11.9V32h3v6.7H86.7z"/>
		<path class="st0" d="M103.6,38.7V32h2.2v-25h-2.1V0.3h11.9V32h3v6.7H103.6z"/>
		<path class="st0" d="M9.7,44.2v2.4H8.6v7.9h1.1v2.4h-6v-2.4h1.1v-7.9H3.7v-2.4H9.7z"/>
		<path class="st0" d="M23.4,46.5v10.4h-3.9L14.8,50v4.6h1.4v2.3h-5.6v-2.3h1.1v-8h-1.1v-2.3h5.2l4.5,6.7v-4.3h-1.2v-2.3h5.5v2.3
			H23.4z"/>
		<path class="st0" d="M25.5,52.3h3.4c0,1.5,1.5,1.8,2.3,1.8c0.6,0,1.5-0.1,1.5-0.9c0-1.4-7-0.8-7-5.5c0-2.7,2.5-3.9,4.3-3.9
			c1.5,0,3.1,0.5,3.8,1.9l0.2-1.5h3.1v4.6h-3.3c0-1.3-1.1-2.1-2.3-2.1c-0.5,0-1.3,0.3-1.3,1c0,1.9,7.2,1.4,7.2,5.7
			c0,2.8-2.7,3.9-4.8,3.9c-1.8,0-3.1-0.9-3.8-1.7l-0.2,1.4h-3.2V52.3z"/>
		<path class="st0" d="M44,44.2v2.3h-1v3.9c0,2.9,0.7,3.5,1.8,3.5c1.1,0,1.8-0.4,1.8-3.6v-3.9h-1v-2.4h5.4v2.3h-1V51
			c0,4.3-1.8,6.3-5.2,6.3c-3.7-0.1-5.6-2-5.6-6.2v-4.5h-1v-2.4H44z"/>
		<path class="st0" d="M57.8,44.2c4.2,0,5,1.7,5,3.7c0,1.4-1.1,2.4-2.6,2.6c1.3,0.2,2.4,1.3,2.4,2.6c0,0.8,0.1,1.2,0.4,1.2
			c0.3,0,0.4-0.2,0.4-0.6v-0.6h1.2v1c0,1.5-0.6,2.9-2.7,2.9c-2.4,0-3.5-1.3-3.5-3.4c0-1.7-0.2-2.1-1.8-2.1v2.8h1.1v2.4h-5.9v-2.4h1
			v-7.9h-1v-2.4H57.8z M56.6,49.7h0.8c1.1,0,1.7-0.5,1.7-1.5c0-1.1-0.6-1.6-1.7-1.6h-0.9V49.7z"/>
		<path class="st0" d="M72.2,56.9v-2.4h1.7l-0.4-1.2h-3.7l-0.4,1.2h1.4v2.4h-5.8v-2.4h1.2l2.5-8H68v-2.3h7l3.2,10.3h1.3v2.4H72.2z
			 M72.9,51.1l-1.2-3.9l-1.2,3.9H72.9z"/>
		<path class="st0" d="M93,46.5v10.4h-3.9L84.4,50v4.6h1.4v2.3h-5.6v-2.3h1.1v-8h-1.1v-2.3h5.2l4.5,6.7v-4.3h-1.2v-2.3h5.5v2.3H93z"
			/>
		<path class="st0" d="M106.9,54.6c-1.2,1.4-3.1,2.6-5.5,2.6c-3.9,0-6.4-2.5-6.4-6.5c0-4.2,3.1-6.7,5.5-6.7c1.8,0,2.6,1,2.8,1.2
			l0.4-1h2.9v5.2h-3.3c-0.1-1.2-0.6-2.3-1.9-2.3c-1.3,0-2.2,1.6-2.2,3.6c0,1.8,0.9,3.4,2.7,3.4c1.5,0,2.7-1.6,2.9-1.8L106.9,54.6z"
			/>
		<path class="st0" d="M118.6,44.2v4h-3.1v-1.6h-2.9v2.5h3.5v2.4h-3.5v3h2.9v-1.7h3.1v4.1h-11v-2.4h1.1v-7.9h-1.1v-2.4H118.6z"/>
	</g>
	<g>
		<path class="st0" d="M6.4,64.7c0-0.2,0.2-1.2,0.4-2l0.4-1.8h1.7l0.5,2.2c0.1,0.5,0.2,1.2,0.2,1.6h0c0-0.4,0.2-1.2,0.2-1.5l0.3-1.2
			H9.8v-1.1h2.3v1.1h-0.4l-1.2,4.6H8.5L8,64.6c-0.1-0.3-0.2-0.8-0.2-1h0c0,0.2-0.1,0.8-0.2,1l-0.5,1.9H5.2l-1.1-4.6H3.7v-1.1h2.7
			v1.1H5.9l0.2,1.2C6.2,63.5,6.3,64.4,6.4,64.7L6.4,64.7z"/>
		<path class="st0" d="M17.1,60.9v1.8h-1.4v-0.7h-1.3V63h1.5v1.1h-1.5v1.3h1.3v-0.8h1.4v1.8h-4.9v-1.1h0.5v-3.5h-0.5v-1.1H17.1z"/>
		<path class="st0" d="M17.4,63c0.6-0.7,0.8-1.4,0.8-2.6l1.5,0.4c0,1-0.5,2-1.3,2.8L17.4,63z"/>
		<path class="st0" d="M22.5,60.9v1.1h-0.4v3.5h1v-1h1.4v2.1H20v-1.1h0.4v-3.5H20v-1.1H22.5z"/>
		<path class="st0" d="M27.5,60.9v1.1H27v3.5h1v-1h1.4v2.1h-4.5v-1.1h0.4v-3.5h-0.4v-1.1H27.5z"/>
		<path class="st0" d="M37.2,63H36v-1h-0.7v3.5H36v1.1h-3v-1.1h0.7v-3.5H33v1h-1.2v-2.1h5.4V63z"/>
		<path class="st0" d="M40.6,66.5v-1.1h0.8l-0.2-0.5h-1.7l-0.2,0.5H40v1.1h-2.6v-1.1H38l1.1-3.5h-0.3v-1h3.1l1.4,4.6h0.6v1.1H40.6z
			 M40.9,63.9l-0.5-1.7l-0.5,1.7H40.9z"/>
		<path class="st0" d="M46.3,61.9v1.3l1.5-1.3h-0.6v-1h2.7v1h-0.5l-1.2,1l1.6,2.5h0.5v1.1h-3.2v-1.1h0.5l-0.9-1.4l-0.6,0.5v0.9h0.4
			v1.1h-2.5v-1.1h0.4v-3.6h-0.4v-1h2.5v1H46.3z"/>
		<path class="st0" d="M55.7,60.9v1.8h-1.4v-0.7H53V63h1.5v1.1H53v1.3h1.3v-0.8h1.4v1.8h-4.9v-1.1h0.5v-3.5h-0.5v-1.1H55.7z"/>
		<path class="st0" d="M60.8,60.9v1.1h-0.5v3.5h0.5v1.1h-2.7v-1.1h0.5v-3.5h-0.5v-1.1H60.8z"/>
		<path class="st0" d="M66.6,63h-1.2v-1h-0.7v3.5h0.7v1.1h-3v-1.1H63v-3.5h-0.7v1h-1.2v-2.1h5.4V63z"/>
		<path class="st0" d="M73.7,60.9v1.8h-1.4v-0.7h-1.2v1.4h1.5v1.1h-1.5v1h0.8v1.1h-3v-1.1h0.5v-3.5h-0.5v-1.1H73.7z"/>
		<path class="st0" d="M76.7,60.9c1.9,0,2.2,0.7,2.2,1.7c0,0.6-0.5,1.1-1.2,1.2c0.6,0.1,1.1,0.6,1.1,1.1c0,0.3,0,0.5,0.2,0.5
			c0.1,0,0.2-0.1,0.2-0.3v-0.3h0.5v0.4c0,0.7-0.3,1.3-1.2,1.3c-1.1,0-1.6-0.6-1.6-1.5c0-0.7-0.1-0.9-0.8-0.9v1.3h0.5v1.1h-2.6v-1.1
			h0.5v-3.5h-0.5v-1.1H76.7z M76.2,63.3h0.4c0.5,0,0.8-0.2,0.8-0.7c0-0.5-0.3-0.7-0.7-0.7h-0.4V63.3z"/>
		<path class="st0" d="M80,63.7c0-1.7,1.2-2.9,2.8-2.9c2,0,2.9,1.2,2.9,3c0,1.8-1,2.9-2.8,2.9C81.2,66.7,80,65.7,80,63.7z
			 M83.7,63.7c0-1-0.3-1.8-0.9-1.8c-0.5,0-0.8,0.7-0.8,1.7c0,1.1,0.4,1.7,0.9,1.7C83.4,65.4,83.7,64.7,83.7,63.7z"/>
		<path class="st0" d="M91.6,62.3c-0.1,0.4-0.2,0.9-0.2,1.1l-0.8,3.1h-1.7L88,63.3c0-0.1-0.1-0.6-0.2-1h0v3.2h0.5v1H86v-1h0.4v-3.6
			H86v-1h3.1l0.8,3l0.8-3h3.1v1h-0.4v3.6h0.4v1.1h-2.6v-1.1h0.5v-2.7L91.6,62.3L91.6,62.3z"/>
		<path class="st0" d="M98.8,60.9v1.1h-0.5v1.2h1.5v-1.2h-0.5v-1.1h2.6v1.1h-0.5v3.5h0.5v1.1h-2.6v-1.1h0.5v-1.2h-1.5v1.2h0.5v1.1
			h-2.6v-1.1h0.4v-3.5h-0.4v-1.1H98.8z"/>
		<path class="st0" d="M107.3,60.9v1.8h-1.4v-0.7h-1.3V63h1.5v1.1h-1.5v1.3h1.3v-0.8h1.4v1.8h-4.9v-1.1h0.5v-3.5h-0.5v-1.1H107.3z"
			/>
		<path class="st0" d="M110.3,60.9c1.9,0,2.2,0.7,2.2,1.7c0,0.6-0.5,1.1-1.2,1.2c0.6,0.1,1.1,0.6,1.1,1.1c0,0.3,0,0.5,0.2,0.5
			c0.1,0,0.2-0.1,0.2-0.3v-0.3h0.5v0.4c0,0.7-0.3,1.3-1.2,1.3c-1.1,0-1.6-0.6-1.6-1.5c0-0.7-0.1-0.9-0.8-0.9v1.3h0.5v1.1h-2.6v-1.1
			h0.5v-3.5h-0.5v-1.1H110.3z M109.8,63.3h0.4c0.5,0,0.8-0.2,0.8-0.7c0-0.5-0.3-0.7-0.7-0.7h-0.4V63.3z"/>
		<path class="st0" d="M118.6,60.9v1.8h-1.4v-0.7h-1.3V63h1.5v1.1h-1.5v1.3h1.3v-0.8h1.4v1.8h-4.9v-1.1h0.5v-3.5h-0.5v-1.1H118.6z"
			/>
	</g>
</g>
</svg>
