<?xml version="1.0" encoding="utf-8"?>
<!-- Generator: Adobe Illustrator 19.2.0, SVG Export Plug-In . SVG Version: 6.00 Build 0)  -->
<svg version="1.1" id="Layer_1" xmlns="http://www.w3.org/2000/svg" xmlns:xlink="http://www.w3.org/1999/xlink" x="0px" y="0px"
	 viewBox="0 0 42 42" style="enable-background:new 0 0 42 42;" xml:space="preserve">
<style type="text/css">
	.st0{fill:#FFFFFF;}
</style>
<g>
	<path class="st0" d="M32.7,8.6l-3.7,0c-4.2,0-6.9,2.8-6.9,7.1V19h-3.7c-0.3,0-0.6,0.3-0.6,0.6v4.7c0,0.3,0.3,0.6,0.6,0.6h3.7v11.9
		c0,0.3,0.3,0.6,0.6,0.6h4.9c0.3,0,0.6-0.3,0.6-0.6V24.8h4.4c0.3,0,0.6-0.3,0.6-0.6l0-4.7c0-0.2-0.1-0.3-0.2-0.4
		C32.9,19,32.7,19,32.6,19h-4.4v-2.8c0-1.3,0.3-2,2-2l2.5,0c0.3,0,0.6-0.3,0.6-0.6V9.2C33.3,8.9,33.1,8.6,32.7,8.6L32.7,8.6z
		 M32.7,8.6"/>
</g>
</svg>
