<?xml version="1.0" encoding="utf-8"?>
<!-- Generator: Adobe Illustrator 19.2.0, SVG Export Plug-In . SVG Version: 6.00 Build 0)  -->
<svg version="1.1" id="Layer_1" xmlns="http://www.w3.org/2000/svg" xmlns:xlink="http://www.w3.org/1999/xlink" x="0px" y="0px"
	 viewBox="0 0 40 40" style="enable-background:new 0 0 40 40;" xml:space="preserve">
<style type="text/css">
	.st0{fill:#3A3A3A;}
</style>
<g>
	<g>
		<path class="st0" d="M14.1,18.4h10.3V20c0,5.7-4.6,10.3-10.3,10.3C8.5,30.3,3.9,25.7,3.9,20c0-5.7,4.6-10.3,10.3-10.3
			c2.3,0,4.4,0.7,6.3,2.1l-2,2.5c-1.2-1-2.7-1.5-4.3-1.5c-3.9,0-7.1,3.2-7.1,7.1c0,3.9,3.2,7.1,7.1,7.1c3.3,0,6.2-2.3,6.9-5.5h-6.9
			V18.4z M33.3,18.4h2.8v3.2h-2.8v2.8h-3.2v-2.8h-2.8v-3.2h2.8v-2.8h3.2V18.4z M33.3,18.4"/>
	</g>
</g>
</svg>
