<?xml version="1.0" encoding="utf-8"?>
<!-- Generator: Adobe Illustrator 19.2.1, SVG Export Plug-In . SVG Version: 6.00 Build 0)  -->
<svg version="1.1" id="Layer_1" xmlns="http://www.w3.org/2000/svg" xmlns:xlink="http://www.w3.org/1999/xlink" x="0px" y="0px"
	 viewBox="0 0 17 17"  width="17" height="17" style="enable-background:new 0 0 17 17;" xml:space="preserve">
<style type="text/css">
	.st0{fill:#FFFFFF;}
</style>
<g>
	<g>
		<path class="st0" d="M16.6,13.2c0,0.3,0,0.5-0.2,0.7l-2.3,2.3c-0.1,0.1-0.2,0.2-0.4,0.3c-0.2,0.1-0.3,0.1-0.5,0.2c0,0,0,0-0.1,0
			c-0.1,0-0.1,0-0.2,0c-0.2,0-0.6,0-1-0.1c-0.5-0.1-1.1-0.3-1.8-0.5c-0.7-0.3-1.5-0.7-2.4-1.3c-0.9-0.6-1.8-1.4-2.8-2.4
			c-0.8-0.8-1.5-1.5-2-2.3C2.4,9.3,1.9,8.6,1.6,8C1.3,7.4,1.1,6.9,0.9,6.4C0.7,5.9,0.6,5.4,0.6,5.1C0.5,4.7,0.5,4.4,0.5,4.2
			c0-0.2,0-0.3,0-0.3c0-0.2,0.1-0.3,0.2-0.5C0.8,3.2,0.9,3.1,1,3l2.3-2.3c0.2-0.2,0.3-0.2,0.5-0.2c0.1,0,0.3,0,0.4,0.1
			c0.1,0.1,0.2,0.2,0.3,0.3l1.8,3.5C6.4,4.6,6.4,4.8,6.4,5c0,0.2-0.1,0.4-0.3,0.5L5.2,6.4c0,0,0,0.1-0.1,0.1c0,0.1,0,0.1,0,0.1
			c0,0.2,0.1,0.5,0.3,0.8c0.1,0.3,0.3,0.6,0.6,1c0.3,0.4,0.7,0.8,1.2,1.4c0.5,0.5,1,0.9,1.4,1.2c0.4,0.3,0.7,0.5,1,0.6
			c0.3,0.1,0.5,0.2,0.6,0.2l0.2,0c0,0,0.1,0,0.1,0c0.1,0,0.1,0,0.1-0.1l1-1c0.2-0.2,0.4-0.3,0.7-0.3c0.2,0,0.3,0,0.5,0.1h0l3.3,1.9
			C16.4,12.8,16.6,13,16.6,13.2L16.6,13.2z M16.6,13.2"/>
	</g>
</g>
</svg>
