<?xml version="1.0" encoding="utf-8"?>
<!-- Generator: Adobe Illustrator 19.2.0, SVG Export Plug-In . SVG Version: 6.00 Build 0)  -->
<svg version="1.1" id="Layer_1" xmlns="http://www.w3.org/2000/svg" xmlns:xlink="http://www.w3.org/1999/xlink" x="0px" y="0px"
	 viewBox="0 0 536 46" style="enable-background:new 0 0 536 46;" xml:space="preserve">
<style type="text/css">
	.st0{fill:#728187;}
</style>
<g>
	<g>
		<g>
			<g>
				<g>
					<path class="st0" d="M53.5,37.7c-1.1,0.7-2.4,1.1-3.7,1.2c-1.7,0.1-3.2-0.3-4.4-1.6c-1.2-1.2-1.6-2.5-1.6-4.2
						c0-1.3,0.4-3.1,1.3-4.1c1-1.1,2.4-1.7,3.9-1.7c1.4,0,2.4,0.3,3.2,1.3c0.4,0.5,0.5,1.1,0.6,1.7h0.8l0-3.2c-1.8-0.7-3.1-1-4.8-1
						c-4.4,0-8.4,2.4-8.4,6.9c0,2,0.8,3.9,2.4,5.3c1.6,1.4,3.9,1.9,6.1,1.9c1.7,0,3.4-0.6,4.8-1.4L53.5,37.7L53.5,37.7z"/>
					<path class="st0" d="M61.3,30.1l2.1,4.8h-4.2L58.8,36l5.1,0l1.2,2.8c0.3,0.7-0.5,0.7-1.3,0.7V40h6.4v-0.6H70
						c-0.8,0-1-0.1-1.4-0.9L63,26.4h-1.3L56.9,37c-0.3,0.6-0.7,1.7-1.2,2.1c-0.2,0.2-0.4,0.3-1.2,0.3V40h4.5v-0.6
						c-1.4,0-1.7-0.1-1.5-0.6L61.3,30.1L61.3,30.1z"/>
					<path class="st0" d="M76.5,38.9v-5.4h3.2c0.4,0,0.8,0.1,0.8,0.6v1c0,0,0.8,0,0.8,0v-4.3h-0.8v1c0,0.5-0.5,0.7-0.8,0.7h-3.2
						v-4.9h4.4c1.3,0,1.6,0.4,1.6,1.1v0.7h0.8v-3c0,0-11.7,0-11.7,0v0.6c1.3,0,1.7,0.5,1.7,1.6V38c0,0.9-0.5,1.4-1.7,1.4V40h12
						l0-3.4h-0.8v1.2c0,0.5-0.4,1.1-1.1,1.1H76.5L76.5,38.9z"/>
					<polygon class="st0" points="1.1,23 59.4,13 45.7,21.9 58.2,21.9 67.6,1.1 1.1,23 					"/>
				</g>
			</g>
		</g>
		<g>
			<path class="st0" d="M100.4,26.4h3.3c1.1,0,1.9,0.1,2.6,0.5c1.4,0.6,2.3,1.8,2.3,3.5c0,2.1-1,3.8-3.1,4.6
				c-0.9,0.4-2.1,0.6-3.5,0.6h-0.5l-1,4.5h-3.2L100.4,26.4z M102.6,33.1c0.7,0,1.3-0.2,1.8-0.5c0.7-0.4,1.1-1.1,1.1-2
				c0-0.6-0.2-1.1-0.7-1.4c-0.3-0.1-0.7-0.2-1.2-0.2H103l-0.9,4.1H102.6z"/>
			<path class="st0" d="M108.1,37.6c0-1.1,0.4-1.9,1-2.5c1-1,2.7-1.3,4.6-1.3h0.8c0-0.1,0-0.2,0-0.2c0-0.7-0.3-1.1-1.6-1.1
				c-0.8,0-1.8,0.2-2.7,0.6l-0.4-2.2c1.1-0.4,2.5-0.7,3.8-0.7c1.8,0,4.1,0.5,4.1,3.2c0,0.7-0.1,1.4-0.3,2.2l-0.3,1.2
				c-0.1,0.6-0.3,1.2-0.3,1.8c0,0.5,0.1,0.9,0.2,1.3l-2.7,0.6c-0.1-0.4-0.3-1.2-0.4-1.6c-0.7,1-1.8,1.6-3,1.6
				C109.2,40.3,108.1,39.2,108.1,37.6z M114.2,36l0.1-0.2h-0.5c-1.3,0-2.1,0.2-2.4,0.7c-0.2,0.2-0.3,0.5-0.3,0.7
				c0,0.5,0.4,0.8,0.8,0.8C112.8,37.9,113.9,37.2,114.2,36z"/>
			<path class="st0" d="M120,30.3h2.4v1.9h0c0.6-1.1,1.3-2.1,2.6-2.1c0.6,0,1.1,0.2,1.6,0.6l-1.3,2.5c-0.3-0.2-0.7-0.4-1.1-0.4
				c-0.9,0-1.9,0.8-2.6,3.8l-0.7,3.4h-3.1L120,30.3z"/>
			<path class="st0" d="M125.8,35.9c0-3,2-5.9,6.1-5.9c1.1,0,2.2,0.2,2.9,0.6l-0.6,2.5c-0.8-0.4-1.5-0.6-2.2-0.6c-1.6,0-3,1.1-3,3.2
				c0,1.4,0.7,2.1,2.1,2.1c0.9,0,1.7-0.3,2.2-0.6l0.8,2.2c-0.7,0.5-2.3,0.9-3.5,0.9C127.2,40.3,125.8,38.2,125.8,35.9z"/>
			<path class="st0" d="M145.5,26.4h2.8l2.7,13.7h-3.4l-0.6-3.3h-4.1l-1.8,3.3h-3.6L145.5,26.4z M146.7,34.3l-0.4-2.6
				c0-0.3-0.1-0.7-0.1-1.1h0c-0.1,0.4-0.3,0.8-0.5,1.1l-1.3,2.6H146.7z"/>
			<path class="st0" d="M151.3,30.3h3l0.5,3c0.2,1,0.4,2.1,0.5,3h0c0.3-0.7,0.7-1.7,1.2-2.7l1.6-3.3h3.2l-5.3,9.9h-2.4L151.3,30.3z"
				/>
			<path class="st0" d="M161.8,30.3h3.1l-2.2,9.8h-3.1L161.8,30.3z M162,27.5c0-1.2,1-1.9,2-1.9c1.1,0,1.7,0.7,1.7,1.6
				c0,1.2-1,2-2,2C162.7,29.1,162,28.4,162,27.5z"/>
			<path class="st0" d="M164.3,37.6c0-1.1,0.4-1.9,1-2.5c1-1,2.7-1.3,4.6-1.3h0.8c0-0.1,0-0.2,0-0.2c0-0.7-0.3-1.1-1.6-1.1
				c-0.8,0-1.8,0.2-2.7,0.6l-0.4-2.2c1.1-0.4,2.5-0.7,3.8-0.7c1.8,0,4.1,0.5,4.1,3.2c0,0.7-0.1,1.4-0.3,2.2l-0.3,1.2
				c-0.1,0.6-0.3,1.2-0.3,1.8c0,0.5,0.1,0.9,0.2,1.3l-2.7,0.6c-0.1-0.4-0.3-1.2-0.4-1.6c-0.7,1-1.8,1.6-3,1.6
				C165.4,40.3,164.3,39.2,164.3,37.6z M170.4,36l0.1-0.2h-0.5c-1.3,0-2.1,0.2-2.4,0.7c-0.2,0.2-0.3,0.5-0.3,0.7
				c0,0.5,0.4,0.8,0.8,0.8C169,37.9,170.1,37.2,170.4,36z"/>
			<path class="st0" d="M175.2,37.8c0-0.4,0-0.8,0.2-1.5l0.8-3.6h-1.8l0.5-2.4h1.8l0.5-2.3l3.3-0.8l-0.7,3.1h2.6l-1,2.4h-2.2l-0.9,4
				c0,0.2-0.1,0.3-0.1,0.5c0,0.5,0.2,0.6,0.7,0.6c0.6,0,1.2-0.2,1.7-0.5l0.7,2.2c-1,0.5-2.2,0.7-3.3,0.7
				C176,40.3,175.2,39.3,175.2,37.8z"/>
			<path class="st0" d="M183.7,30.3h3.1l-2.2,9.8h-3.1L183.7,30.3z M183.9,27.5c0-1.2,1-1.9,2-1.9c1.1,0,1.7,0.7,1.7,1.6
				c0,1.2-1,2-2,2C184.6,29.1,183.9,28.4,183.9,27.5z"/>
			<path class="st0" d="M192.2,30c2.9,0,4.6,1.8,4.6,4.4c0,3.2-2.4,5.8-5.7,5.8c-2.9,0-4.6-1.8-4.6-4.4
				C186.6,32.7,188.9,30,192.2,30z M191.2,37.8c1.2,0,2.5-1.3,2.5-3.4c0-1.3-0.7-2-1.6-2c-1.2,0-2.5,1.3-2.5,3.4
				C189.7,37.2,190.3,37.8,191.2,37.8z"/>
			<path class="st0" d="M198.9,30.3h2.4v1.9h0c0.8-1,2-2.1,3.6-2.1c1.6,0,2.5,0.8,2.5,2.5c0,0.4-0.1,1-0.3,2.1l-1.2,5.4h-3.1
				l1.2-5.2c0.2-0.8,0.2-1.1,0.2-1.3c0-0.5-0.2-0.8-0.7-0.8c-0.4,0-1.1,0.2-1.7,1c-0.4,0.6-0.9,1.5-1.2,2.9l-0.8,3.4h-3.1
				L198.9,30.3z"/>
		</g>
	</g>
	<g>
		<g>
			<path class="st0" d="M427.9,15.5h-6.4v-4.4h17.9v4.4H433v18.6h-5.1V15.5z"/>
			<path class="st0" d="M446.8,23c-0.1-1.5-0.9-2.5-2.8-2.5c-1.5,0-3,0.6-4.7,1.6l-1.8-3.5c2.2-1.4,4.8-2.3,7.5-2.3
				c4.5,0,7,2.5,7,7.9v10h-4.2l-0.4-1.8h-0.1c-1.5,1.3-3.1,2.2-5.1,2.2c-3.1,0-5.2-2.3-5.2-5.3C436.9,25.7,439.8,23.7,446.8,23z
				 M443.9,30.7c1.2,0,2-0.5,2.9-1.5v-3.1c-3.7,0.5-4.9,1.5-4.9,2.9C441.9,30.1,442.7,30.7,443.9,30.7z"/>
			<path class="st0" d="M458.3,25.1l-5.1-8.4h5.6l1.5,2.8c0.5,1,1,2,1.5,3h0.2c0.4-1,0.8-2,1.2-3l1.2-2.8h5.4l-5.1,9.1l5.4,8.5h-5.6
				l-1.8-2.9c-0.5-1-1.1-2.1-1.7-3.1H461c-0.5,1-0.9,2-1.4,3.1l-1.3,2.9h-5.4L458.3,25.1z"/>
			<path class="st0" d="M471,11.2h5.2v8.9h8v-8.9h5.2v23h-5.2v-9.6h-8v9.6H471V11.2z"/>
			<path class="st0" d="M490.6,16.7h5.2v10.2c0,2.5,0.7,3.3,2.2,3.3c1.3,0,2.1-0.5,3.1-1.9V16.7h5.2v17.6h-4.2l-0.4-2.5h-0.1
				c-1.5,1.8-3.1,2.8-5.5,2.8c-3.8,0-5.4-2.7-5.4-7.1V16.7H490.6z"/>
			<path class="st0" d="M509.8,33.7v-0.2c-0.9-0.6-1.6-1.5-1.6-3c0-1.3,0.8-2.5,2-3.3v-0.2c-1.2-0.8-2.4-2.5-2.4-4.5
				c0-4.2,3.5-6.3,7.2-6.3c1,0,1.9,0.2,2.7,0.5h6.4v3.8h-2.8c0.3,0.5,0.5,1.4,0.5,2.3c0,4.1-3.1,5.9-6.9,5.9c-0.6,0-1.4-0.1-2.1-0.4
				c-0.5,0.4-0.6,0.7-0.6,1.3c0,0.9,0.7,1.3,2.7,1.3h2.8c4.3,0,6.7,1.3,6.7,4.4c0,3.6-3.8,6.3-9.8,6.3c-4.1,0-7.4-1.4-7.4-4.4
				C507.3,35.8,508.2,34.6,509.8,33.7z M515.5,38.4c2.3,0,4.1-0.9,4.1-2.1c0-1.1-0.9-1.4-2.7-1.4H515c-1.2,0-1.9-0.1-2.5-0.2
				c-0.6,0.5-0.9,1.1-0.9,1.8C511.5,37.7,513.1,38.4,515.5,38.4z M517.4,22.6c0-1.8-1-2.8-2.4-2.8s-2.4,0.9-2.4,2.8s1,2.9,2.4,2.9
				S517.4,24.5,517.4,22.6z"/>
		</g>
		<g id="XMLID_10_">
			<path id="XMLID_12_" class="st0" d="M526.1,11.7v-0.5h3.7v0.5h-1.5v4.1h-0.6v-4.1H526.1z"/>
			<path id="XMLID_11_" class="st0" d="M531.1,11.2l1.5,3.9l1.5-3.9h0.8v4.6h-0.6v-3.8l0,0l-1.5,3.8h-0.5l-1.5-3.8l0,0v3.8h-0.5
				v-4.6H531.1z"/>
		</g>
	</g>
	<g>
		<path class="st0" d="M294.8,25.7c-2.7,3-6.8,5.6-11.9,5.6c-8.4,0-13.9-5.4-13.9-14.2c0-9.1,6.8-14.5,12-14.5
			c3.9,0,5.7,2.2,6.1,2.7l0.9-2.2h6.2v11.2H287c-0.1-2.6-1.4-5-4.2-5c-2.8,0-4.7,3.5-4.7,7.8c0,3.9,2,7.4,5.8,7.4
			c3.3,0,5.9-3.5,6.3-3.9L294.8,25.7z"/>
		<path class="st0" d="M296.4,30.6v-5.2h1.7V6.2h-1.7V1.1h9.5v12.3c0.4-0.7,3.3-3.2,6.2-3.2c6.1,0,6.9,4.5,6.9,8.7v6.6h1.9v5.2
			h-10.1V19.9c0-1.3,0-3.7-2.3-3.7c-2,0-2.5,2-2.5,3.7v5.6h2.8v5.2H296.4z"/>
		<path class="st0" d="M322.5,30.6v-5.2h1.7V16h-1.7v-5.1h9.1v14.5h1.9v5.2H322.5z M327.8,1.1c2.7,0,4.3,2.2,4.3,4
			c0,2.2-1.5,4-4.3,4c-2.5,0-4.3-2.1-4.3-4C323.6,3.3,325.1,1.1,327.8,1.1z"/>
		<path class="st0" d="M335.5,30.6v-5.2h1.7V6.1h-1.7V1.1h9.1v24.4h2.3v5.2H335.5z"/>
		<path class="st0" d="M348.6,30.6v-5.2h1.7V6.1h-1.7V1.1h9.1v24.4h2.3v5.2H348.6z"/>
		<path class="st0" d="M276.1,34.9v1.9h-0.9v6.1h0.9v1.9h-4.7v-1.9h0.9v-6.1h-0.9v-1.9H276.1z"/>
		<path class="st0" d="M286.7,36.7v8h-3l-3.6-5.4v3.5h1.1v1.8h-4.3v-1.8h0.8v-6.2h-0.8v-1.8h4l3.4,5.2v-3.3h-1v-1.8h4.2v1.8H286.7z"
			/>
		<path class="st0" d="M288.3,41.2h2.6c0,1.2,1.2,1.4,1.8,1.4c0.5,0,1.2-0.1,1.2-0.7c0-1.1-5.4-0.6-5.4-4.2c0-2.1,2-3,3.3-3
			c1.2,0,2.4,0.4,2.9,1.4l0.1-1.2h2.4v3.5h-2.5c0-1-0.8-1.6-1.8-1.6c-0.4,0-1,0.3-1,0.7c0,1.4,5.6,1.1,5.6,4.4c0,2.2-2.1,3-3.7,3
			c-1.4,0-2.4-0.7-2.9-1.3l-0.2,1.1h-2.5V41.2z"/>
		<path class="st0" d="M302.6,34.9v1.8h-0.8v3c0,2.3,0.5,2.7,1.4,2.7c0.9,0,1.4-0.3,1.4-2.8v-3h-0.8v-1.9h4.2v1.8h-0.8v3.4
			c0,3.3-1.4,4.8-4,4.8c-2.8-0.1-4.4-1.6-4.4-4.8v-3.5h-0.8v-1.8H302.6z"/>
		<path class="st0" d="M313.2,34.9c3.3,0,3.9,1.3,3.9,2.9c0,1.1-0.9,1.9-2,2c1,0.1,1.8,1,1.8,2c0,0.6,0.1,1,0.3,1
			c0.2,0,0.3-0.2,0.3-0.4v-0.5h0.9v0.8c0,1.2-0.5,2.2-2.1,2.2c-1.8,0-2.7-1-2.7-2.6c0-1.3-0.2-1.6-1.4-1.6v2.2h0.9v1.9h-4.5v-1.9
			h0.8v-6.1h-0.8v-1.8H313.2z M312.3,39.1h0.6c0.8,0,1.3-0.4,1.3-1.1c0-0.8-0.5-1.2-1.3-1.2h-0.7V39.1z"/>
		<path class="st0" d="M324.3,44.7v-1.8h1.3l-0.3-1h-2.9l-0.3,1h1.1v1.8h-4.5v-1.8h1l1.9-6.2h-0.6v-1.8h5.4l2.5,8h1v1.8H324.3z
			 M324.8,40.2l-0.9-3l-0.9,3H324.8z"/>
		<path class="st0" d="M340.3,36.7v8h-3l-3.6-5.4v3.5h1.1v1.8h-4.3v-1.8h0.8v-6.2h-0.8v-1.8h4L338,40v-3.3h-1v-1.8h4.2v1.8H340.3z"
			/>
		<path class="st0" d="M351,42.9c-1,1.1-2.4,2-4.3,2c-3,0-5-1.9-5-5c0-3.2,2.4-5.2,4.3-5.2c1.4,0,2,0.8,2.2,1l0.3-0.8h2.2v4h-2.5
			c0-0.9-0.5-1.8-1.5-1.8c-1,0-1.7,1.2-1.7,2.8c0,1.4,0.7,2.6,2.1,2.6c1.2,0,2.1-1.2,2.2-1.4L351,42.9z"/>
		<path class="st0" d="M360.1,34.9V38h-2.4v-1.2h-2.2v1.9h2.7v1.9h-2.7v2.3h2.2v-1.3h2.4v3.2h-8.5v-1.9h0.9v-6.1h-0.9v-1.9H360.1z"
			/>
	</g>
</g>
</svg>
