<?xml version="1.0" encoding="utf-8"?>
<!-- Generator: Adobe Illustrator 19.2.1, SVG Export Plug-In . SVG Version: 6.00 Build 0)  -->
<svg version="1.1" id="Layer_1" xmlns="http://www.w3.org/2000/svg" xmlns:xlink="http://www.w3.org/1999/xlink" x="0px" y="0px"
	 viewBox="0 0 21 21"  width="21" height="21" style="enable-background:new 0 0 21 21;" xml:space="preserve">
<style type="text/css">
	.st0{fill:#FFFFFF;}
</style>
<g>
	<path class="st0" d="M19.8,17.3l-6-6C15.3,8.5,15,5,12.7,2.7C9.9,0,5.5,0,2.7,2.7s-2.7,7.2,0,10c2.3,2.3,5.8,2.7,8.5,1.1l6,6
		c0.7,0.7,1.8,0.7,2.5,0S20.5,18,19.8,17.3z M4.1,11.3c-2-2-2-5.2,0-7.2s5.2-2,7.2,0s2,5.2,0,7.2S6.1,13.3,4.1,11.3z"/>
</g>
</svg>
