<?xml version="1.0" encoding="utf-8"?>
<!-- Generator: Adobe Illustrator 19.2.1, SVG Export Plug-In . SVG Version: 6.00 Build 0)  -->
<svg version="1.1" id="Layer_1" xmlns="http://www.w3.org/2000/svg" xmlns:xlink="http://www.w3.org/1999/xlink" x="0px" y="0px"
	 viewBox="0 0 266 40"  width="266" height="40" style="enable-background:new 0 0 266 40;" xml:space="preserve">
<style type="text/css">
	.st0{fill:#706D6E;}
	.st1{fill:#F8682C;}
	.st2{fill:#91C300;}
	.st3{fill:#00B4F1;}
	.st4{fill:#FFC300;}
</style>
<g>
	<g>
		<path class="st0" d="M197.2,31.5h-2.3V14.3h2.3V31.5z"/>
		<path class="st0" d="M201.5,31.5V19.4h1.2c0.2,0,0.4,0,0.5,0.1c0.1,0.1,0.1,0.2,0.2,0.5l0.1,1.9c0.4-0.8,0.9-1.5,1.5-2
			c0.6-0.5,1.3-0.7,2.2-0.7c0.3,0,0.6,0,0.9,0.1c0.3,0.1,0.5,0.2,0.8,0.3l-0.3,1.6c-0.1,0.2-0.2,0.3-0.4,0.3c-0.1,0-0.3,0-0.5-0.1
			c-0.2-0.1-0.6-0.1-1-0.1c-0.7,0-1.4,0.2-1.9,0.6s-0.9,1.1-1.3,1.9v7.7H201.5z"/>
		<path class="st0" d="M216,19.2c0.7,0,1.4,0.1,2,0.4s1.1,0.6,1.6,1.1c0.4,0.5,0.8,1,1.1,1.7c0.3,0.7,0.4,1.4,0.4,2.3
			c0,0.3,0,0.6-0.1,0.7c-0.1,0.1-0.2,0.2-0.4,0.2h-8.1c0,0.8,0.1,1.4,0.3,2c0.2,0.6,0.5,1,0.8,1.4s0.7,0.7,1.2,0.9
			c0.5,0.2,1,0.3,1.6,0.3c0.5,0,1-0.1,1.4-0.2c0.4-0.1,0.7-0.3,1-0.4s0.5-0.3,0.7-0.4c0.2-0.1,0.3-0.2,0.5-0.2
			c0.2,0,0.3,0.1,0.4,0.2l0.6,0.8c-0.3,0.3-0.6,0.6-0.9,0.8c-0.4,0.2-0.8,0.4-1.2,0.6c-0.4,0.2-0.9,0.3-1.3,0.3
			c-0.4,0.1-0.9,0.1-1.3,0.1c-0.8,0-1.6-0.1-2.3-0.4c-0.7-0.3-1.3-0.7-1.8-1.2c-0.5-0.5-0.9-1.2-1.2-2s-0.4-1.7-0.4-2.8
			c0-0.8,0.1-1.6,0.4-2.4c0.3-0.7,0.6-1.4,1.1-1.9c0.5-0.5,1.1-1,1.8-1.3C214.3,19.3,215.1,19.2,216,19.2z M216,20.7
			c-1,0-1.8,0.3-2.4,0.9c-0.6,0.6-1,1.4-1.1,2.5h6.6c0-0.5-0.1-1-0.2-1.4c-0.1-0.4-0.3-0.8-0.6-1.1c-0.3-0.3-0.6-0.5-1-0.7
			S216.5,20.7,216,20.7z"/>
		<path class="st0" d="M226.1,13.8v17.7H224V13.8H226.1z"/>
		<path class="st0" d="M238.8,31.5h-0.9c-0.2,0-0.4,0-0.5-0.1c-0.1-0.1-0.2-0.2-0.3-0.4l-0.2-1.1c-0.3,0.3-0.6,0.5-0.9,0.8
			s-0.6,0.4-1,0.6c-0.3,0.2-0.7,0.3-1.1,0.4c-0.4,0.1-0.8,0.1-1.3,0.1c-0.5,0-0.9-0.1-1.3-0.2c-0.4-0.1-0.8-0.3-1.1-0.6
			c-0.3-0.3-0.5-0.6-0.7-1c-0.2-0.4-0.3-0.9-0.3-1.4c0-0.5,0.1-0.9,0.4-1.4c0.3-0.4,0.7-0.8,1.3-1.2c0.6-0.3,1.4-0.6,2.3-0.8
			s2.1-0.3,3.5-0.3v-1c0-1-0.2-1.7-0.6-2.2c-0.4-0.5-1-0.7-1.8-0.7c-0.5,0-1,0.1-1.3,0.2c-0.4,0.1-0.7,0.3-0.9,0.4s-0.5,0.3-0.7,0.4
			c-0.2,0.1-0.4,0.2-0.6,0.2c-0.1,0-0.3,0-0.4-0.1c-0.1-0.1-0.2-0.2-0.3-0.3l-0.4-0.7c0.7-0.6,1.4-1.1,2.2-1.5
			c0.8-0.3,1.6-0.5,2.6-0.5c0.7,0,1.3,0.1,1.8,0.3c0.5,0.2,1,0.5,1.3,0.9c0.4,0.4,0.6,0.9,0.8,1.5c0.2,0.6,0.3,1.2,0.3,1.9V31.5z
			 M233.3,30.2c0.4,0,0.7,0,1-0.1c0.3-0.1,0.6-0.2,0.9-0.3c0.3-0.1,0.5-0.3,0.8-0.5c0.3-0.2,0.5-0.4,0.7-0.7v-2.5
			c-1,0-1.8,0.1-2.5,0.2c-0.7,0.1-1.2,0.3-1.7,0.5c-0.4,0.2-0.7,0.4-0.9,0.7c-0.2,0.3-0.3,0.6-0.3,0.9c0,0.3,0.1,0.6,0.2,0.8
			c0.1,0.2,0.2,0.4,0.4,0.6s0.4,0.3,0.6,0.3C232.7,30.2,233,30.2,233.3,30.2z"/>
		<path class="st0" d="M242.1,31.5V19.4h1.3c0.3,0,0.5,0.1,0.6,0.4l0.2,1.3c0.5-0.6,1.1-1.1,1.8-1.4c0.7-0.4,1.4-0.5,2.3-0.5
			c0.7,0,1.3,0.1,1.8,0.3c0.5,0.2,0.9,0.5,1.3,0.9c0.3,0.4,0.6,0.9,0.8,1.5c0.2,0.6,0.3,1.2,0.3,1.9v7.7H250v-7.7
			c0-0.9-0.2-1.6-0.6-2.1c-0.4-0.5-1.1-0.8-1.9-0.8c-0.6,0-1.2,0.2-1.8,0.5c-0.5,0.3-1.1,0.7-1.5,1.2v9H242.1z"/>
		<path class="st0" d="M264,31.5c-0.3,0-0.5-0.1-0.6-0.4l-0.2-1.5c-0.5,0.6-1.1,1.1-1.8,1.5s-1.4,0.6-2.3,0.6
			c-0.7,0-1.3-0.1-1.9-0.4c-0.6-0.3-1.1-0.7-1.5-1.2c-0.4-0.5-0.7-1.2-0.9-1.9s-0.3-1.7-0.3-2.7c0-0.9,0.1-1.7,0.4-2.5s0.6-1.4,1-2
			c0.5-0.6,1-1,1.7-1.3c0.6-0.3,1.4-0.5,2.2-0.5c0.7,0,1.4,0.1,1.9,0.4c0.5,0.3,1,0.6,1.4,1.1v-6.7h2.1v17.7H264z M259.8,29.9
			c0.7,0,1.3-0.2,1.8-0.5c0.5-0.3,1-0.8,1.4-1.4v-5.9c-0.4-0.5-0.8-0.9-1.3-1.1c-0.5-0.2-1-0.3-1.6-0.3c-1.1,0-2,0.4-2.6,1.2
			c-0.6,0.8-0.9,2-0.9,3.5c0,0.8,0.1,1.5,0.2,2c0.1,0.6,0.3,1,0.6,1.4c0.3,0.4,0.6,0.6,1,0.8S259.3,29.9,259.8,29.9z"/>
	</g>
	<path class="st1" d="M0.8,0.8H19c0,6.1,0,12.2,0,18.2c-6.1,0-12.2,0-18.2,0V0.8L0.8,0.8z"/>
	<path class="st2" d="M20.9,0.8h18.2c0,6.1,0,12.2,0,18.2c-6.1,0-12.2,0-18.2,0C20.9,13,20.9,6.9,20.9,0.8L20.9,0.8z"/>
	<path class="st0" d="M165.3,7.8c1.7-1.1,3.9-1.2,5.8-0.7c0,1.1,0,2.3,0,3.4c-0.9-0.4-2-0.7-2.9-0.3c-0.8,0.3-1.2,1.1-1.3,1.8
		c-0.1,1,0,2-0.1,3c1.9,0,3.8,0,5.8,0c0-1.2,0-2.5,0-3.7c1.3-0.4,2.6-0.8,3.9-1.2c0,1.6,0,3.3,0,4.9c1.3,0,2.6,0,3.9,0v3.2
		c-1.3-0.1-2.6,0-3.9,0c0,1.8,0,3.7,0,5.5c0,1-0.1,2,0.1,3.1c0.1,0.6,0.3,1.3,0.9,1.6c0.9,0.5,2.1,0.3,3-0.3v3.2
		c-1.1,0.5-2.4,0.6-3.6,0.6c-1.2-0.1-2.4-0.5-3.1-1.4c-0.9-1-1.1-2.4-1.1-3.8c0-2.8,0-5.7,0-8.5c-1.9,0-3.9,0-5.8,0
		c0,4.4,0,8.9,0,13.3c-1.3,0-2.6,0-3.9,0c0-4.4,0-8.9,0-13.3c-0.9,0-1.8,0-2.7,0c0-1.1,0-2.1,0-3.2c0.9,0,1.8,0,2.7,0
		c0.1-1.4-0.1-2.8,0.3-4.2C163.4,9.6,164.2,8.5,165.3,7.8L165.3,7.8z"/>
	<path class="st0" d="M80.8,8c0.8-0.1,1.7,0.2,2.2,0.8c0.6,0.7,0.7,1.8,0.3,2.6c-0.5,0.9-1.6,1.3-2.6,1.1c-1-0.2-1.9-1.1-1.8-2.2
		C78.8,9.1,79.7,8.1,80.8,8L80.8,8z"/>
	<path class="st0" d="M50.6,8.5c1.9,0,3.8,0,5.7,0c1.8,4.5,3.6,9.1,5.4,13.6c0.5,1.1,0.9,2.3,1.4,3.4c2.3-5.7,4.6-11.3,6.9-17
		c1.8,0,3.7,0,5.5,0c0,7.7,0,15.3,0,23c-1.3,0-2.7,0-4,0c0-5.7,0-11.3,0-17c0-0.3,0-0.5,0-0.8c-0.1,0.1-0.1,0.2-0.2,0.4
		c-2.3,5.8-4.6,11.6-6.9,17.4c-0.9,0-1.9,0-2.8,0c-2.4-5.8-4.7-11.6-7-17.4c-0.1-0.1-0.1-0.2-0.2-0.4c0,2.5,0,5,0,7.4
		c0,3.4,0,6.9,0,10.3c-1.3,0-2.5,0-3.8,0C50.6,23.8,50.6,16.2,50.6,8.5L50.6,8.5z"/>
	<path class="st0" d="M91.7,15c1.9-0.5,4-0.5,5.9,0c0.4,0.1,0.8,0.3,1.1,0.5c0,1.3,0,2.5,0,3.8c-1.3-1-2.9-1.6-4.5-1.4
		c-1.3,0.1-2.5,0.8-3.3,1.8c-1,1.3-1.2,3-1,4.6c0.1,1.2,0.6,2.5,1.6,3.3c1,0.9,2.4,1.2,3.7,1.1c1.3-0.1,2.5-0.7,3.5-1.5
		c0,1.2,0,2.4,0,3.6c-1.6,1-3.5,1.2-5.4,1.1c-1.9-0.1-3.8-0.8-5.1-2.1c-1.5-1.4-2.3-3.5-2.4-5.5c-0.1-2.1,0.3-4.3,1.6-6.1
		C88.3,16.6,89.9,15.5,91.7,15L91.7,15z"/>
	<path class="st0" d="M134.8,14.7c1.8-0.3,3.7-0.1,5.5,0.6c0,1.2,0,2.4,0,3.6c-1.2-0.8-2.7-1.3-4.1-1.2c-0.7,0-1.5,0.3-1.9,1
		c-0.3,0.7-0.1,1.6,0.6,2c1.1,0.7,2.5,1.1,3.6,1.7c0.9,0.5,1.8,1.2,2.3,2.2c0.9,1.8,0.5,4.2-1,5.6c-1.5,1.4-3.6,1.7-5.5,1.7
		c-1.4-0.1-2.8-0.4-4-0.9c0-1.3,0-2.5,0-3.8c1.1,0.8,2.3,1.3,3.6,1.5c0.9,0.1,1.9,0.2,2.7-0.2c0.8-0.4,0.9-1.5,0.5-2.2
		c-0.4-0.5-1.1-0.8-1.7-1.1c-1.2-0.5-2.4-1-3.4-1.7c-0.7-0.6-1.3-1.3-1.5-2.2c-0.3-1.3-0.2-2.8,0.5-3.9
		C131.7,15.8,133.2,15,134.8,14.7L134.8,14.7z"/>
	<path class="st0" d="M107.5,15.3c1.1-0.7,2.5-0.7,3.7-0.3c0,1.3,0,2.6,0,3.9c-0.8-0.5-1.7-0.7-2.7-0.6c-1.1,0.1-2,1-2.5,2
		c-0.5,1-0.6,2.2-0.6,3.4c0,2.6,0,5.3,0,7.9c-1.3,0-2.6,0-3.9,0c0-5.5,0-11,0-16.5c1.3,0,2.6,0,3.9,0c0,0.9,0,1.9,0,2.8
		C105.9,16.8,106.5,15.8,107.5,15.3L107.5,15.3z"/>
	<path class="st0" d="M79.2,15c1.3,0,2.6,0,3.9,0c0,5.5,0,11,0,16.5c-1.3,0-2.6,0-3.9,0C79.2,26,79.2,20.5,79.2,15L79.2,15z"/>
	<g>
		<path class="st0" d="M127.5,18.9c-0.7-1.5-1.9-2.8-3.4-3.5c-1.8-0.8-3.8-0.9-5.6-0.7c-2,0.3-3.9,1.2-5.2,2.8
			c-1.2,1.4-1.7,3.2-1.8,5c-0.2,2.1,0.2,4.4,1.4,6.2c1.1,1.5,2.7,2.6,4.6,3c1.5,0.3,3.1,0.3,4.6,0c1.8-0.4,3.4-1.3,4.5-2.8
			c1.1-1.4,1.6-3.1,1.7-4.8C128.4,22.3,128.2,20.5,127.5,18.9z M123.7,26.4c-0.4,0.8-1.1,1.6-1.9,1.9c-1,0.4-2.2,0.4-3.2,0.1
			c-1.1-0.3-2-1.1-2.5-2c-0.6-1.3-0.7-2.7-0.6-4.1c0.1-1.3,0.6-2.6,1.5-3.4c0.7-0.7,1.7-1,2.6-1c1.2-0.1,2.4,0.3,3.3,1.1
			c0.9,0.9,1.3,2.2,1.4,3.4C124.3,23.8,124.3,25.2,123.7,26.4z"/>
	</g>
	<g>
		<path class="st0" d="M159.1,19.3c-0.6-1.6-1.8-3.1-3.4-3.8c-1.8-0.9-3.9-1-5.9-0.8c-1.6,0.2-3.1,0.8-4.4,1.9
			c-1.5,1.3-2.3,3.1-2.6,5.1c-0.2,1.9-0.2,3.9,0.6,5.7c0.7,1.8,2.2,3.2,4,3.9c1.8,0.7,3.7,0.8,5.6,0.5c1.9-0.3,3.7-1.3,4.9-2.8
			c1.3-1.6,1.8-3.6,1.8-5.6C159.7,21.9,159.6,20.6,159.1,19.3z M155.5,24.9c-0.2,0.9-0.5,1.7-1,2.4c-0.6,0.7-1.4,1.1-2.3,1.2
			c-0.9,0.1-1.9,0.1-2.8-0.3c-1-0.4-1.7-1.2-2.1-2.2c-0.5-1.1-0.6-2.4-0.5-3.6c0.1-1.2,0.4-2.4,1.2-3.3c0.7-0.9,1.8-1.3,2.9-1.4
			c1.1-0.1,2.3,0.2,3.2,0.9c0.8,0.7,1.2,1.6,1.4,2.6C155.7,22.6,155.7,23.8,155.5,24.9z"/>
	</g>
	<path class="st3" d="M0.8,20.9c6.1,0,12.2,0,18.2,0c0,6.1,0,12.2,0,18.2H0.8V20.9L0.8,20.9z"/>
	<path class="st4" d="M20.9,20.9c6.1,0,12.2,0,18.2,0c0,6.1,0,12.2,0,18.2H20.9C20.9,33.1,20.9,27,20.9,20.9L20.9,20.9z"/>
</g>
</svg>
