<?xml version="1.0" encoding="utf-8"?>
<!-- Generator: Adobe Illustrator 19.2.1, SVG Export Plug-In . SVG Version: 6.00 Build 0)  -->
<svg version="1.1" id="Layer_1" xmlns="http://www.w3.org/2000/svg" xmlns:xlink="http://www.w3.org/1999/xlink" x="0px" y="0px"
	 viewBox="0 0 14 9"  width="14" height="9" style="enable-background:new 0 0 14 9;" xml:space="preserve">
<style type="text/css">
	.st0{fill:#849199;}
</style>
<g>
	<g>
		<g>
			<polygon class="st0" points="7,8.4 13.4,1.9 12.1,0.6 7,5.8 1.9,0.6 0.6,1.9 			"/>
		</g>
	</g>
</g>
</svg>
