<?xml version="1.0" encoding="utf-8"?>
<!-- Generator: Adobe Illustrator 19.2.1, SVG Export Plug-In . SVG Version: 6.00 Build 0)  -->
<svg version="1.1" id="Layer_1" xmlns="http://www.w3.org/2000/svg" xmlns:xlink="http://www.w3.org/1999/xlink" x="0px" y="0px"
	 viewBox="0 0 48 48"  width="48" height="48" style="enable-background:new 0 0 48 48;" xml:space="preserve">
<style type="text/css">
	.st0{fill:#E1E3E5;}
</style>
<g>
	<g>
		<g>
			<polygon class="st0" points="32.6,24 19.4,10.8 16.7,13.4 27.3,24 16.7,34.6 19.4,37.2 			"/>
		</g>
	</g>
	<g>
		<path class="st0" d="M24,47.4C11.1,47.4,0.6,36.9,0.6,24S11.1,0.6,24,0.6S47.4,11.1,47.4,24S36.9,47.4,24,47.4z M24,3.9
			c-11.1,0-20.1,9-20.1,20.1s9,20.1,20.1,20.1s20.1-9,20.1-20.1S35.1,3.9,24,3.9z"/>
	</g>
</g>
</svg>
