<?xml version="1.0" encoding="utf-8"?>
<!-- Generator: Adobe Illustrator 19.1.0, SVG Export Plug-In . SVG Version: 6.00 Build 0)  -->
<svg version="1.1" id="Layer_1" xmlns="http://www.w3.org/2000/svg" xmlns:xlink="http://www.w3.org/1999/xlink" x="0px" y="0px"
	 viewBox="0 0 15 28"  width="15" height="28"  style="enable-background:new 0 0 15 28;" xml:space="preserve">
<style type="text/css">
	.st0{fill:#233844;}
</style>
<g id="XMLID_1508_">
	<polygon id="XMLID_1509_" class="st0" points="12.2,13.7 0.3,25.5 1.6,26.8 14.7,13.7 1.6,0.6 0.3,1.8 	"/>
</g>
</svg>
