<?xml version="1.0" encoding="utf-8"?>
<!-- Generator: Adobe Illustrator 19.2.1, SVG Export Plug-In . SVG Version: 6.00 Build 0)  -->
<svg version="1.1" id="Layer_1" xmlns="http://www.w3.org/2000/svg" xmlns:xlink="http://www.w3.org/1999/xlink" x="0px" y="0px"
	 viewBox="0 0 28 28"  width="28" height="28" style="enable-background:new 0 0 28 28;" xml:space="preserve">
<style type="text/css">
	.st0{fill:#213544;}
</style>
<path class="st0" d="M9,12.6h8.7V14c0,4.8-3.9,8.7-8.7,8.7c-4.8,0-8.7-3.9-8.7-8.7c0-4.8,3.9-8.7,8.7-8.7c1.9,0,3.8,0.6,5.3,1.8
	l-1.7,2.2C11.6,8.4,10.4,8,9,8c-3.3,0-6,2.7-6,6c0,3.3,2.7,6,6,6c2.8,0,5.2-2,5.8-4.6H9V12.6z M25.3,12.6h2.4v2.7h-2.4v2.4h-2.7
	v-2.4h-2.4v-2.7h2.4v-2.4h2.7V12.6z M25.3,12.6"/>
</svg>
