<?xml version="1.0" encoding="utf-8"?>
<!-- Generator: Adobe Illustrator 19.2.1, SVG Export Plug-In . SVG Version: 6.00 Build 0)  -->
<svg version="1.1" id="Layer_1" xmlns="http://www.w3.org/2000/svg" xmlns:xlink="http://www.w3.org/1999/xlink" x="0px" y="0px"
	 viewBox="0 0 28 28"  width="28" height="28" style="enable-background:new 0 0 28 28;" xml:space="preserve">
<style type="text/css">
	.st0{fill:#213544;}
</style>
<g>
	<path class="st0" d="M21.4,13.5H6.6c-2.4,0-4.3,1.9-4.3,4.3v3.4c0,2.4,1.9,4.3,4.3,4.3h14.8c2.4,0,4.3-1.9,4.3-4.3v-3.4
		C25.7,15.4,23.8,13.5,21.4,13.5z M9.7,16.1H8.3V23H7v-6.8H5.6V15h4.1V16.1z M13.6,23h-1.2v-0.6c-0.2,0.2-0.4,0.4-0.7,0.5
		c-0.2,0.1-0.5,0.2-0.7,0.2c-0.3,0-0.5-0.1-0.6-0.3c-0.1-0.2-0.2-0.4-0.2-0.8v-4.9h1.2v4.5c0,0.1,0,0.2,0.1,0.3
		c0.1,0.1,0.1,0.1,0.2,0.1c0.1,0,0.2,0,0.3-0.1c0.1-0.1,0.3-0.2,0.4-0.3v-4.5h1.2V23z M17.9,21.7c0,0.4-0.1,0.7-0.3,1
		c-0.2,0.2-0.5,0.3-0.8,0.3c-0.2,0-0.4,0-0.6-0.1c-0.2-0.1-0.4-0.2-0.5-0.4V23h-1.2v-8h1.2v2.6c0.2-0.2,0.3-0.3,0.5-0.4
		c0.2-0.1,0.4-0.1,0.5-0.1c0.4,0,0.7,0.1,0.9,0.4c0.2,0.3,0.3,0.6,0.3,1.1V21.7z M22,20.2h-2.3v1.1c0,0.3,0,0.5,0.1,0.6
		c0.1,0.1,0.2,0.2,0.4,0.2c0.2,0,0.3-0.1,0.4-0.2c0.1-0.1,0.1-0.3,0.1-0.7V21H22v0.3c0,0.6-0.1,1.1-0.4,1.4
		c-0.3,0.3-0.7,0.5-1.3,0.5c-0.5,0-0.9-0.2-1.2-0.5c-0.3-0.3-0.5-0.8-0.5-1.3v-2.7c0-0.5,0.2-0.9,0.5-1.3c0.3-0.3,0.8-0.5,1.3-0.5
		c0.5,0,1,0.1,1.2,0.4c0.3,0.3,0.4,0.7,0.4,1.3V20.2z"/>
	<path class="st0" d="M20.2,17.9c-0.2,0-0.3,0.1-0.4,0.2c-0.1,0.1-0.1,0.3-0.1,0.5v0.6h1v-0.6c0-0.2,0-0.4-0.1-0.5
		C20.6,18,20.4,17.9,20.2,17.9z"/>
	<path class="st0" d="M16.2,17.9c-0.1,0-0.2,0-0.3,0.1c-0.1,0-0.2,0.1-0.2,0.2v3.7c0.1,0.1,0.2,0.2,0.3,0.2c0.1,0,0.2,0.1,0.3,0.1
		c0.1,0,0.3,0,0.3-0.1c0.1-0.1,0.1-0.2,0.1-0.4v-3.1c0-0.2,0-0.4-0.1-0.5C16.5,18,16.3,17.9,16.2,17.9z"/>
	<polygon class="st0" points="8.5,11.4 10,11.4 10,7.7 11.8,2.6 10.3,2.6 9.3,6.1 9.2,6.1 8.3,2.6 6.8,2.6 8.5,7.9 	"/>
	<path class="st0" d="M13.8,11.6c0.6,0,1.1-0.2,1.4-0.5c0.3-0.3,0.5-0.8,0.5-1.3V6.4c0-0.5-0.2-0.9-0.5-1.2
		c-0.4-0.3-0.8-0.5-1.4-0.5c-0.6,0-1.1,0.1-1.4,0.4c-0.4,0.3-0.5,0.7-0.5,1.2v3.4c0,0.6,0.2,1,0.5,1.3
		C12.8,11.4,13.2,11.6,13.8,11.6z M13.2,6.3c0-0.1,0.1-0.3,0.2-0.3c0.1-0.1,0.2-0.1,0.4-0.1c0.2,0,0.3,0,0.4,0.1
		c0.1,0.1,0.2,0.2,0.2,0.3v3.5c0,0.2-0.1,0.3-0.2,0.4c-0.1,0.1-0.2,0.1-0.4,0.1c-0.2,0-0.3,0-0.4-0.1c-0.1-0.1-0.1-0.2-0.1-0.4V6.3z
		"/>
	<path class="st0" d="M17.7,11.5c0.2,0,0.5-0.1,0.8-0.2c0.3-0.1,0.5-0.3,0.8-0.6v0.7h1.3V4.9h-1.3v4.9c-0.1,0.1-0.3,0.3-0.4,0.3
		c-0.2,0.1-0.3,0.1-0.4,0.1c-0.1,0-0.2,0-0.3-0.1c-0.1-0.1-0.1-0.2-0.1-0.3v-5h-1.3v5.4c0,0.4,0.1,0.7,0.2,0.9
		C17.2,11.4,17.4,11.5,17.7,11.5z"/>
</g>
</svg>
