<?xml version="1.0" encoding="utf-8"?>
<!-- Generator: Adobe Illustrator 19.2.1, SVG Export Plug-In . SVG Version: 6.00 Build 0)  -->
<svg version="1.1" id="Layer_1" xmlns="http://www.w3.org/2000/svg" xmlns:xlink="http://www.w3.org/1999/xlink" x="0px" y="0px"
	 viewBox="0 0 204 47"  width="204" height="47" style="enable-background:new 0 0 204 47;" xml:space="preserve">
<style type="text/css">
	.st0{fill:#FFFFFF;}
</style>
<g>
	<g>
		<path class="st0" d="M197.1,8.7v0.8h-1.3V13h-0.9V9.5h-1.3V8.7H197.1z M200.1,11.1c0,0.1,0.1,0.1,0.1,0.2c0,0.1,0,0.1,0.1,0.2
			c0-0.1,0-0.1,0.1-0.2c0-0.1,0-0.1,0.1-0.2l1.2-2.2c0-0.1,0.1-0.1,0.1-0.1c0,0,0.1,0,0.2,0h0.8V13h-0.8v-2.7l0.1-0.5l-1.3,2.4
			c-0.1,0.1-0.2,0.2-0.3,0.2h-0.1c-0.2,0-0.3-0.1-0.3-0.2l-1.3-2.4l0.1,0.5V13h-0.8V8.7h0.8c0.1,0,0.1,0,0.2,0c0,0,0.1,0.1,0.1,0.1
			L200.1,11.1z"/>
	</g>
	<g>
		<path class="st0" d="M22.2,14.8l1.5-3.9c0,0-2.1-1.2-6-1.2c-3.6,0-7.1,0.9-9.9,3.1C4.9,15,2.8,18,1.9,21.4
			c-0.3,1.4-0.5,2.7-0.6,4.1c-0.2,3.4,0.8,6.9,3.4,9.3c2.2,2,5.3,2.8,8.2,2.8c1.6,0,5.9-0.6,7.1-1.4l-0.4-3.9c0,0-2.6,1.1-5.4,1.1
			c-1.5,0-3-0.1-4.3-0.9c-1.1-0.6-2-1.6-2.6-2.7c-0.7-1.2-0.9-2.8-0.9-4.1c-0.1-3.4,1.2-7.1,3.8-9.3c0,0,0,0,0,0
			c1.6-1.3,3.3-2.1,5.4-2.4c1.4-0.2,2.8-0.1,4.2,0.1C20,14.1,22.3,14.7,22.2,14.8z"/>
		<polygon class="st0" points="26.7,8.7 31.6,8.7 26.1,37.2 21.3,37.2 		"/>
		<path class="st0" d="M47.3,19.4c-1.2-1.3-3.2-2-5-2.3c-0.3,0-0.6-0.1-0.8-0.1c-2.8-0.1-5.6,1.1-7.6,3c-2.9,2.8-3.6,6.2-3.8,8.8
			s1.1,5.3,2.1,6.2c1,1,2.6,2.4,6.3,2.4c3.7,0,6-1.4,8.4-4.1c2.1-2.4,2.5-5.9,2.5-7.8C49.3,24.8,49.5,21.7,47.3,19.4z M44.5,25.7
			c-0.2,2.2-1,4.4-2.2,6.2c-0.4,0.6-0.8,0.9-1.4,1.3c-2,1.2-4.7,0.3-5.5-1.8c-0.3-0.7-0.3-1.6-0.3-2.4c0-1.2,0.4-2.6,0.8-3.7
			c0.7-2.1,2.4-4.4,4.9-4.4c1.4,0,2.1,0.5,2.8,1.4C44.3,23.2,44.6,24.6,44.5,25.7z"/>
		<path class="st0" d="M151.1,19.6c-1.3-1.4-3.1-2.1-5-2.3c-0.3,0-0.6-0.1-0.8-0.1c-2.8-0.1-5.6,1.1-7.6,3c-2.8,2.7-4.3,7-3.7,10.8
			c0.7,4.2,4.1,6.6,8.2,6.6c2.8,0,5.5-1.1,7.5-3.2c2.3-2.3,3.4-5.5,3.4-8.8c0-1.9-0.4-3.9-1.4-5.5C151.5,20.1,151.3,19.9,151.1,19.6
			z M148.3,26c-0.2,2.2-1,4.4-2.2,6.2c-0.4,0.6-0.8,0.9-1.4,1.3c-1.2,0.7-2.7,0.7-3.9,0c-1.3-0.7-1.8-2.1-1.9-3.5
			c-0.1-1.5,0.3-3,0.8-4.4c0.7-2.1,2.4-4.4,4.9-4.4c1.4,0,2.1,0.5,2.8,1.4C148.1,23.4,148.4,24.8,148.3,26z"/>
		<path class="st0" d="M64.8,17.6h4.7l-3.4,19.5h-4.3l0.3-3.3c0,0-2.9,3.9-6.7,3.7c-3.6-0.2-5.1-1.9-5.1-5.5
			c0-3.5,2.4-14.4,2.4-14.4h4.7l-2,11.2C55.3,30,55,32.1,56,33c0.2,0.2,0.5,0.3,0.8,0.4c2.3,0.7,4.1-1.5,5.1-3.3
			c0.4-0.8,0.7-1.7,1-2.6C64,23.1,64.8,17.6,64.8,17.6z"/>
		<path class="st0" d="M157.7,37.5h-4.9l3.5-19.7h4.3l-0.3,3.4c0,0,2.6-4,6.6-3.9c3.6,0.1,5.2,2,5.2,5.7c0,3.5-2.5,14.4-2.5,14.4
			h-4.9l2.2-11.2c0.2-1.2,0.5-3.2-0.4-4.2c-0.2-0.2-0.5-0.4-0.8-0.5c-3.3-1.2-5.6,3.4-6.2,5.9C158.5,32,157.7,37.5,157.7,37.5z"/>
		<path class="st0" d="M88.5,7.8c-1.1,1.5-2,3.1-2.7,4.9c-0.6,1.6-1.1,3.2-1.5,4.9c0.1-0.2-3.3-0.4-3.6-0.4
			c-3.1,0.1-6.1,1.5-8.2,3.9c-1.6,1.8-2.6,4-3.1,6.3c-0.2,0.8-0.3,1.6-0.4,2.4c-0.3,4,1.8,7.8,6.1,7.8s6.5-3.6,6.5-3.6l-0.3,3.2
			c0,0,4.4,0,4.5,0c-0.1,0,0.4-3.9,0.4-4.2c0.3-2.6,0.9-5.2,1.5-7.8c0.5-2,0.8-3.9,1.3-5.9c0.5-1.9,0.9-3.8,1.4-5.7
			c0.8-3.4,2.2-6.5,4.6-9.1c0.6-0.7,1.3-1.3,2.1-1.8c0.6-0.4,1.2-0.8,1.9-1.1c0.2-0.1,0.5-0.3,0.7-0.3c-3,0.5-5.9,1.6-8.3,3.5
			C90.4,5.6,89.4,6.7,88.5,7.8z M82.2,28.4c-0.3,1.2-0.8,2.4-1.6,3.4c-1,1.2-2.6,2.1-4.2,1.7C73.8,32.7,74,29,74.6,27
			c0.5-2,1.8-4.2,3.6-5.2c1.7-1,3.6-1,5.4-0.3c-0.4,2-0.7,4-1.2,5.9C82.3,27.7,82.3,28.1,82.2,28.4z"/>
		<path class="st0" d="M108.9,15.4l1.6-4c0,0-2.3-1.4-5.8-1.4c-2.3,0-4.7,0.5-6.7,1.8c-2.2,1.4-3.5,3.5-3.5,6.2
			c-0.1,2.3,0.9,4.4,3.2,6.2c2.1,1.6,6.2,2.9,6,5.6c-0.4,3.9-4.7,4.3-7.7,3.5c-0.4-0.1-2.8-1.1-3.1-1.3c0,0-1.7,3.9-1.7,4
			c0.3,0.3,1.8,1,2,1.1c2.3,1,4.9,1.1,7.4,0.8c2.3-0.3,4.6-1.3,6.2-3c1.7-1.8,2.4-4.7,1.9-7.1c0-0.1,0-0.1-0.1-0.2
			c-0.5-1.8-1.7-3.4-3.3-4.4c-1.1-0.7-2.3-1.3-3.4-2.1c-0.9-0.6-2-1.4-2.3-2.6c-0.2-0.9,0.1-1.9,0.7-2.6c0.9-1.1,2.3-1.6,3.7-1.6
			C107,14.3,108,15,108.9,15.4z"/>
		<path class="st0" d="M119.6,12.9l-0.8,5h4.3l-0.6,3.8h-4.5l-1.7,8.7c0,0-0.1,0.6-0.2,1.3c-0.1,0.9,0.1,2,1.6,2.1c0.4,0,1,0,1.6,0
			l-0.3,3.8c0,0-1.4,0.4-3.1,0.4c-1.8,0-5.1-0.7-4.8-4.6s2.2-11.7,2.2-11.7h-2.6l0.6-3.8h2.8l0.5-3.6L119.6,12.9z"/>
		<path class="st0" d="M135.5,17.5l-0.9,4.7c0,0-2.4-0.4-4,1.2c-1.1,1.1-2.2,2.4-2.9,5.4s-1.7,8.7-1.7,8.7h-4.8l2-10.9
			c0,0,0.4-2.2,0.6-3.2s0.7-5.3,0.7-5.5h4.2l-0.2,3.8C128.4,21.7,130.4,16.9,135.5,17.5z"/>
		<path class="st0" d="M186,17.4c-6.7,0.1-12.4,4.8-12.9,11.7c-0.2,3,0.4,6.2,3.4,7.7c1.7,0.8,3.7,0.7,5.4,0
			c0.8-0.3,1.5-0.8,2.1-1.4c0.4-0.4,1.2-1,1.3-1.5c-0.3,1.8-0.8,3.7-1.7,5.3c-0.5,0.9-1.3,1.8-2.3,2.2c-0.7,0.3-1.6,0.4-2.4,0.4
			c-1.3,0-2.6-0.2-3.8-0.6c-1.2-0.3-2.4-0.9-3.6-1.2c-4.1-1-8.4,0.2-11.2,3.4c0.3-0.3,1.4-0.5,1.8-0.6c1-0.3,1.9-0.5,3-0.5
			c2.5-0.1,4.5,0.8,6.6,1.8c1.8,0.9,3.5,1.5,5.5,1.6c3.1,0.2,6.6-0.3,8.9-2.6c2.3-2.3,3-5.5,3.6-8.6c0.5-2.7,1-5.4,1.5-8.1
			c0.3-1.8,0.7-3.6,1-5.4c0-0.1,0.5-2.4,0.5-2.4C190.5,17.8,188.2,17.4,186,17.4z M186.8,24.5c-0.3,1.4-0.5,2.8-0.9,4.1
			c-0.5,1.7-1.4,3.3-2.9,4.2c-1.3,0.7-3.1,1-4.2-0.2c-0.4-0.4-0.5-0.9-0.6-1.5c-1.1-5,3.5-12,9.1-9.5c0.2,0.1-0.3,2.1-0.4,2.4
			C186.9,24.2,186.8,24.3,186.8,24.5z"/>
	</g>
</g>
</svg>
