<?xml version="1.0" encoding="utf-8"?>
<!-- Generator: Adobe Illustrator 19.2.1, SVG Export Plug-In . SVG Version: 6.00 Build 0)  -->
<svg version="1.1" id="Layer_1" xmlns="http://www.w3.org/2000/svg" xmlns:xlink="http://www.w3.org/1999/xlink" x="0px" y="0px"
	 viewBox="0 0 314 216" style="enable-background:new 0 0 314 216;" xml:space="preserve">
<style type="text/css">
	.st0{fill:#FFFFFF;}
	.st1{fill:none;}
	.st2{fill:#C9CFD6;}
	.st3{fill:#1E0701;}
	.st4{fill:#1370CE;}
	.st5{opacity:0.16;}
	.st6{fill:#00466D;}
	.st7{font-family:'Lato-Black';}
	.st8{font-size:15px;}
	.st9{font-size:21px;}
</style>
<g>
	<polygon class="st0" points="312.1,23.8 145.3,0 114.6,216 284.7,216 	"/>
</g>
<g>
	<path class="st1" d="M251.6,213.5c0.2-0.5,0.3-1,0.5-1.6c0,0,0-0.1,0.1-0.2c0-0.1,0.3-0.9,0.3-0.9c-2.1-1.2-4.2,1.4-4,3.3
		c0.1,0.2,0.1,0.4,0.2,0.6c0.4,0.5,1.1,0.5,1.6,0.3C250.9,214.8,251.4,214.2,251.6,213.5z"/>
	<path class="st1" d="M209.7,206.3c-0.8,0.3-1.4,1.2-1.6,1.9c-0.3,0.8-0.5,2.2,0.4,2.6c0.6,0.3,1.2-0.1,1.7-0.5
		c0.4-0.3,0.6-0.8,0.8-1.3c0.1-0.1,0.1-0.2,0.1-0.4c0.2-0.7,0.5-1.5,0.7-2.3C211.2,206,210.4,206,209.7,206.3z"/>
	<path class="st1" d="M195.1,204.4c-1-0.1-1.7,0.7-2.1,1.5c-0.2,0.4-0.4,0.9-0.5,1.4c0,0.3-0.1,0.6,0,0.9c0.2,0.8,1.2,1.3,2.1,0.9
		c0.2-0.1,0.4-0.2,0.6-0.4c0.5-0.6,0.9-1.4,1.1-2.3c0.1-0.5,0-1-0.2-1.4C195.9,204.7,195.7,204.5,195.1,204.4z"/>
	<path class="st1" d="M250.8,216h0.2c0-0.1,0.1-0.3,0.1-0.4C251.1,215.7,250.9,215.9,250.8,216z"/>
	<path class="st1" d="M233.7,213.5c0.4,0.3,1,0.4,1.5,0.2c0.2-0.1,0.4-0.2,0.6-0.4c0.5-0.6,0.9-1.4,1.1-2.3c0.1-0.5,0-1-0.2-1.4
		c-0.2-0.4-0.4-0.6-1-0.6c-1-0.1-1.7,0.7-2.1,1.5c-0.2,0.5-0.5,1.1-0.5,1.7C233.1,212.6,233.3,213.2,233.7,213.5z"/>
	<polygon class="st2" points="255.8,207.8 256.1,207.8 256.3,206.5 256.8,206.5 256.8,206.2 255.5,206.1 255.4,206.4 255.9,206.4 	
		"/>
	<path class="st2" d="M257.4,206.9l0-0.2l0.4,1c0,0,0,0.1,0.1,0.1l0,0c0,0,0.1,0,0.1-0.1l0.6-0.9l-0.1,0.2l-0.1,1l0.3,0l0.2-1.7
		l-0.3,0c0,0-0.1,0-0.1,0s0,0,0,0l-0.6,0.8c0,0,0,0,0,0.1c0,0,0,0,0,0.1c0,0,0,0,0-0.1c0,0,0,0,0-0.1l-0.3-0.9l0,0c0,0,0,0-0.1,0
		l-0.3,0l-0.2,1.6l0.3,0L257.4,206.9z"/>
	<path class="st2" d="M184.2,208.1c-0.6-0.1-1.1-0.2-1.6-0.6c-0.4-0.3-0.7-0.7-0.9-1.1c-0.2-0.5-0.2-1.1-0.2-1.6
		c0.1-1.3,0.7-2.7,1.8-3.5c0.7-0.4,1.4-0.7,2.2-0.7c0.5,0,1.1,0.1,1.6,0.2c0.1,0,1,0.3,0.9,0.4l0.7-1.5c0,0-0.7-0.6-2.3-0.8
		c-1.4-0.2-2.8,0-4,0.8c-1.2,0.8-2.1,1.8-2.7,3.1c-0.2,0.5-0.3,1-0.4,1.6c-0.2,1.3,0,2.7,0.9,3.8c0.8,0.9,1.9,1.3,3.1,1.5
		c0.6,0.1,2.3,0,2.8-0.3l0-1.5C186.3,207.9,185.3,208.3,184.2,208.1z"/>
	<polygon class="st2" points="190.1,199 186.8,209.9 188.7,210.1 192,199.2 	"/>
	<path class="st2" d="M195.8,203c-0.1,0-0.2-0.1-0.3-0.1c-1.1-0.2-2.3,0.2-3.1,0.9c-1.3,1-1.7,2.3-1.9,3.3c-0.2,1,0.2,2.1,0.5,2.5
		c0.3,0.4,0.9,1.1,2.4,1.2c1.4,0.2,2.4-0.3,3.4-1.2c0.9-0.9,1.2-2.2,1.3-2.9c0-0.3,0.2-1.6-0.5-2.5
		C197.3,203.5,196.5,203.1,195.8,203z M196.3,206.4c-0.2,0.9-0.6,1.7-1.1,2.3c-0.2,0.2-0.4,0.3-0.6,0.4c-0.8,0.4-1.8-0.1-2.1-0.9
		c-0.1-0.3,0-0.6,0-0.9c0.1-0.5,0.3-1,0.5-1.4c0.4-0.8,1.1-1.6,2.1-1.5c0.6,0.1,0.8,0.3,1,0.6C196.4,205.4,196.4,206,196.3,206.4z"
		/>
	<path class="st2" d="M234.1,215.2c1.1,0.1,2.2-0.2,3.1-0.9c1-0.8,1.6-2,1.7-3.3c0.1-0.7,0-1.5-0.3-2.2c-0.1-0.1-0.1-0.2-0.2-0.3
		c-0.4-0.6-1.1-0.9-1.8-1.1c-0.1,0-0.2-0.1-0.3-0.1c-1.1-0.2-2.3,0.2-3.1,0.9c-1.2,0.9-2,2.6-1.9,4.1
		C231.3,214,232.5,215,234.1,215.2z M233.2,212c0-0.6,0.2-1.2,0.5-1.7c0.4-0.8,1.1-1.6,2.1-1.5c0.6,0.1,0.8,0.3,1,0.6
		c0.3,0.4,0.3,1,0.2,1.4c-0.2,0.9-0.6,1.7-1.1,2.3c-0.2,0.2-0.4,0.3-0.6,0.4c-0.5,0.2-1.1,0.2-1.5-0.2
		C233.3,213.2,233.1,212.6,233.2,212z"/>
	<path class="st2" d="M204.7,204.1c0,0-0.5,2.1-1.2,3.8c-0.1,0.3-0.3,0.7-0.5,0.9c-0.5,0.7-1.2,1.4-2.1,1.1
		c-0.1-0.1-0.2-0.1-0.3-0.2c-0.4-0.4-0.2-1.3,0-1.7l1.3-4.3l-1.9-0.2c0,0-1.4,4.2-1.6,5.5c-0.2,1.4,0.4,2.2,1.8,2.4
		c1.4,0.2,2.7-1.2,2.7-1.2l-0.3,1.3l1.7,0.2l2.2-7.5L204.7,204.1z"/>
	<path class="st2" d="M246.4,210.8c0.2-1.4-0.4-2.2-1.8-2.4c-1.6-0.2-2.8,1.2-2.8,1.2l0.3-1.3l-1.7-0.2l-2.2,7.5l1.9,0.2
		c0,0,0.5-2.1,1.1-3.9c0.4-0.9,1.4-2.6,2.7-2c0.1,0.1,0.2,0.1,0.3,0.2c0.3,0.4,0.1,1.2,0,1.7l-1.3,4.2h2
		C245.3,215,246.3,211.9,246.4,210.8z"/>
	<path class="st2" d="M214.1,205.8c0.3-0.7,0.5-1.4,0.8-2.2c0.5-1.3,1.2-2.5,2.2-3.3c0.3-0.2,0.5-0.4,0.9-0.6
		c0.2-0.1,0.5-0.3,0.8-0.4c0.1,0,0.2-0.1,0.3-0.1c-1.2,0.1-2.4,0.4-3.4,1c-0.5,0.3-1,0.6-1.3,1c-0.5,0.5-0.9,1.1-1.2,1.8
		c-0.3,0.6-0.6,1.2-0.8,1.8c0.1-0.1-1.3-0.3-1.4-0.3c-1.2-0.1-2.5,0.3-3.4,1.2c-0.7,0.6-1.2,1.5-1.4,2.3c-0.1,0.3-0.2,0.6-0.3,0.9
		c-0.3,1.5,0.4,3.1,2,3.3c1.7,0.2,2.7-1.1,2.7-1.1l-0.2,1.2c0,0,1.7,0.2,1.8,0.2c0,0,0.3-1.5,0.3-1.6c0.3-1,0.6-2,0.9-3
		C213.6,207.3,213.9,206.5,214.1,205.8z M211.1,208.7c0,0.2-0.1,0.3-0.1,0.4c-0.2,0.5-0.4,0.9-0.8,1.3c-0.5,0.4-1.1,0.7-1.7,0.5
		c-1-0.4-0.7-1.8-0.4-2.6c0.3-0.7,0.9-1.6,1.6-1.9c0.7-0.3,1.5-0.3,2.1,0.1C211.6,207.1,211.3,207.9,211.1,208.7z"/>
	<path class="st2" d="M216.3,205.5c-0.1,0.9,0.2,1.8,1,2.5c0.7,0.7,2.3,1.4,2.1,2.4c-0.3,1.5-2,1.5-3.2,1c-0.1-0.1-1.1-0.5-1.2-0.6
		l-0.9,1.5c0.1,0.1,0.7,0.5,0.8,0.5c0.9,0.5,1.9,0.6,2.9,0.6c0.9,0,1.8-0.3,2.6-0.9c0.8-0.6,1.2-1.7,1-2.7c0,0,0-0.1,0-0.1
		c-0.1-0.7-0.5-1.4-1.1-1.9c-0.4-0.3-0.9-0.6-1.2-0.9c-0.4-0.3-0.7-0.7-0.8-1.1c0-0.4,0.1-0.8,0.4-1c0.4-0.4,0.9-0.6,1.5-0.5
		c1.3,0.2,1.6,0.4,2,0.6l0.8-1.5c0,0-0.9-0.6-2.2-0.8c-0.9-0.1-1.9,0-2.7,0.4C217,203.7,216.4,204.5,216.3,205.5z"/>
	<path class="st2" d="M223.4,207.8c0,0-1.1,3-1.3,4.5c-0.3,1.5,0.9,1.9,1.7,2c0.7,0.1,1.2,0,1.2,0l0.3-1.5c-0.2,0-0.5-0.1-0.6-0.1
		c-0.6-0.1-0.6-0.5-0.6-0.9c0.1-0.3,0.1-0.5,0.1-0.5l1-3.4l1.8,0.2l0.4-1.5l-1.7-0.2l0.6-1.9l-2,0.4l-0.4,1.4l-1.1-0.1l-0.4,1.5
		L223.4,207.8z"/>
	<path class="st2" d="M225.9,214.3l1.9,0.2c0,0,0.6-2.2,1-3.4c0.4-1.2,0.9-1.6,1.4-2c0.7-0.5,1.6-0.3,1.6-0.3l0.5-1.8
		c-2-0.4-3,1.3-2.9,1.3l0.2-1.5l-1.6-0.2c0,0.1-0.4,1.7-0.5,2.1s-0.4,1.2-0.4,1.2L225.9,214.3z"/>
	<path class="st2" d="M251.1,215.6c0,0.1-0.1,0.3-0.1,0.4h1.8c0.3-1,0.6-2,0.9-3.1c0.2-0.7,0.4-1.4,0.7-2.1c0,0,0.3-0.9,0.3-0.9
		c-0.8-0.4-1.7-0.7-2.5-0.7c-2.6-0.2-5.1,1.4-5.6,4c-0.2,1-0.1,2.1,0.6,2.8h3.7C250.9,215.9,251.1,215.7,251.1,215.6z M248.7,214.8
		c-0.1-0.2-0.1-0.4-0.2-0.6c-0.2-2,1.9-4.5,4-3.3c0.1,0-0.2,0.8-0.3,0.9c-0.1,0.1-0.1,0.2-0.1,0.2c-0.2,0.5-0.3,1.1-0.5,1.6
		c-0.3,0.6-0.7,1.2-1.3,1.5C249.8,215.3,249,215.3,248.7,214.8z"/>
</g>
<rect x="213.1" y="-16.9" transform="matrix(0.1411 -0.99 0.99 0.1411 124.1045 277.12)" class="st3" width="17.2" height="167.9"/>
<g>
	<polygon class="st4" points="171.1,4.4 3.1,15.5 16.3,216 185.1,216 	"/>
</g>
<g>
	<path class="st0" d="M195.2,57.7l-0.3,2.1l2.8,0.4l-0.2,1.5l-2.8-0.4l-0.5,3.2l-1.9-0.3l1.2-8.3l5.4,0.8l-0.2,1.5L195.2,57.7z"/>
	<path class="st0" d="M205.6,66.1l-1.7-0.2c-0.3,0-0.5-0.2-0.6-0.5l-1-2.6c-0.1-0.1-0.1-0.2-0.2-0.3c-0.1-0.1-0.2-0.1-0.3-0.1
		l-0.5-0.1l-0.4,3.1l-1.9-0.3l1.2-8.3l2.7,0.4c0.6,0.1,1.1,0.2,1.5,0.4c0.4,0.2,0.7,0.4,1,0.7c0.2,0.3,0.4,0.5,0.5,0.9s0.1,0.7,0,1
		c0,0.3-0.1,0.5-0.2,0.8s-0.2,0.4-0.4,0.6c-0.2,0.2-0.4,0.3-0.6,0.5c-0.2,0.1-0.5,0.2-0.8,0.3c0.1,0.1,0.2,0.2,0.3,0.3
		s0.2,0.2,0.2,0.4L205.6,66.1z M202.1,61.1c0.3,0,0.5,0,0.7,0c0.2,0,0.4-0.1,0.5-0.2s0.2-0.2,0.3-0.4c0.1-0.2,0.1-0.3,0.2-0.5
		c0.1-0.4,0-0.7-0.2-0.9c-0.2-0.2-0.6-0.4-1.1-0.5l-0.8-0.1l-0.4,2.5L202.1,61.1z"/>
	<path class="st0" d="M209.2,59.7l-0.3,1.9l2.6,0.4l-0.2,1.4l-2.6-0.4l-0.3,2l3.4,0.5l-0.2,1.5l-5.4-0.8l1.2-8.3l5.4,0.8l-0.2,1.5
		L209.2,59.7z"/>
	<path class="st0" d="M215.7,60.6l-0.3,1.9l2.6,0.4l-0.2,1.4l-2.6-0.4l-0.3,2l3.4,0.5l-0.2,1.5l-5.4-0.8l1.2-8.3l5.4,0.8l-0.2,1.5
		L215.7,60.6z"/>
	<path class="st0" d="M226.6,64.7l3,0.4l-0.5,3.5c-0.5,0.3-1,0.4-1.5,0.5c-0.5,0.1-1,0.1-1.5,0c-0.7-0.1-1.3-0.3-1.8-0.6
		c-0.5-0.3-1-0.7-1.3-1.1s-0.6-0.9-0.7-1.5c-0.1-0.5-0.2-1.1-0.1-1.7c0.1-0.6,0.3-1.2,0.6-1.7c0.3-0.5,0.6-0.9,1.1-1.2
		c0.4-0.3,0.9-0.5,1.5-0.7c0.6-0.1,1.2-0.2,1.9-0.1c0.3,0,0.7,0.1,1,0.2c0.3,0.1,0.6,0.2,0.8,0.4c0.2,0.1,0.5,0.3,0.7,0.5
		c0.2,0.2,0.4,0.3,0.5,0.5l-0.7,0.8c-0.1,0.1-0.2,0.2-0.4,0.2c-0.1,0-0.3,0-0.4-0.2c-0.1-0.1-0.3-0.2-0.4-0.3
		c-0.1-0.1-0.3-0.2-0.4-0.2s-0.3-0.1-0.4-0.2c-0.2,0-0.3-0.1-0.5-0.1c-0.4-0.1-0.7,0-1,0.1c-0.3,0.1-0.6,0.2-0.8,0.4
		c-0.2,0.2-0.4,0.5-0.6,0.8c-0.2,0.3-0.3,0.7-0.3,1.1c-0.1,0.4-0.1,0.8,0,1.2c0.1,0.4,0.2,0.7,0.4,0.9s0.4,0.5,0.7,0.7
		c0.3,0.2,0.6,0.3,1,0.3c0.2,0,0.4,0,0.6,0c0.2,0,0.4-0.1,0.6-0.1l0.2-1.3l-0.8-0.1c-0.1,0-0.2-0.1-0.3-0.1
		c-0.1-0.1-0.1-0.2-0.1-0.3L226.6,64.7z"/>
	<path class="st0" d="M236.1,64.4l-0.8,5.9l-1.1-0.2c-0.2,0-0.4-0.2-0.4-0.4l-0.1-0.4c-0.1,0.1-0.3,0.2-0.4,0.2s-0.3,0.1-0.4,0.2
		c-0.1,0-0.3,0.1-0.5,0.1c-0.2,0-0.3,0-0.5,0c-0.3,0-0.6-0.1-0.8-0.3c-0.2-0.1-0.4-0.3-0.6-0.6c-0.1-0.2-0.2-0.5-0.3-0.8
		c0-0.3,0-0.6,0-0.9l0.5-3.8l1.8,0.3l-0.5,3.8c0,0.3,0,0.5,0.1,0.7c0.1,0.2,0.3,0.3,0.6,0.3c0.2,0,0.4,0,0.6,0
		c0.2-0.1,0.4-0.1,0.5-0.3l0.6-4.2L236.1,64.4z"/>
	<path class="st0" d="M239.1,64.9l-0.8,5.9l-1.8-0.3l0.8-5.9L239.1,64.9z M239.5,63.3c0,0.1-0.1,0.3-0.1,0.4
		c-0.1,0.1-0.2,0.2-0.3,0.3s-0.2,0.1-0.4,0.2c-0.1,0-0.3,0-0.4,0c-0.1,0-0.3-0.1-0.4-0.1c-0.1-0.1-0.2-0.2-0.3-0.3
		c-0.1-0.1-0.1-0.2-0.2-0.4c0-0.1,0-0.3,0-0.4c0-0.1,0.1-0.3,0.1-0.4c0.1-0.1,0.2-0.2,0.3-0.3c0.1-0.1,0.2-0.1,0.4-0.2
		c0.1,0,0.3,0,0.4,0c0.1,0,0.3,0.1,0.4,0.1c0.1,0.1,0.2,0.2,0.3,0.3s0.1,0.2,0.2,0.4C239.5,63,239.6,63.1,239.5,63.3z"/>
	<path class="st0" d="M246.1,63.2l-1.2,8.5l-1.1-0.2c-0.2,0-0.4-0.2-0.4-0.4l-0.1-0.5c-0.1,0.1-0.3,0.2-0.4,0.3
		c-0.1,0.1-0.3,0.2-0.5,0.2c-0.2,0.1-0.3,0.1-0.5,0.1c-0.2,0-0.4,0-0.6,0c-0.3,0-0.6-0.2-0.8-0.3c-0.2-0.2-0.4-0.4-0.6-0.7
		c-0.2-0.3-0.3-0.6-0.3-1c-0.1-0.4,0-0.8,0-1.3c0.1-0.4,0.2-0.8,0.4-1.2c0.2-0.4,0.4-0.7,0.7-0.9c0.3-0.2,0.6-0.4,0.9-0.5
		c0.3-0.1,0.7-0.1,1.1-0.1c0.3,0,0.6,0.1,0.8,0.2c0.2,0.1,0.4,0.3,0.5,0.4l0.4-3L246.1,63.2z M243.7,67.1c-0.1-0.2-0.2-0.3-0.4-0.4
		c-0.1-0.1-0.3-0.1-0.5-0.2c-0.2,0-0.3,0-0.5,0c-0.1,0-0.3,0.1-0.4,0.3c-0.1,0.1-0.2,0.3-0.3,0.5c-0.1,0.2-0.2,0.5-0.2,0.8
		c0,0.3-0.1,0.6,0,0.8c0,0.2,0.1,0.4,0.1,0.5c0.1,0.1,0.1,0.2,0.3,0.3c0.1,0.1,0.2,0.1,0.4,0.1c0.1,0,0.2,0,0.4,0
		c0.1,0,0.2,0,0.3-0.1c0.1,0,0.2-0.1,0.3-0.1c0.1-0.1,0.2-0.1,0.3-0.2L243.7,67.1z"/>
	<path class="st0" d="M247.9,69.4c0,0.5,0.1,0.9,0.3,1.1c0.2,0.3,0.5,0.4,0.9,0.5c0.2,0,0.4,0,0.5,0c0.2,0,0.3-0.1,0.4-0.1
		s0.2-0.1,0.3-0.1c0.1,0,0.2,0,0.3,0c0.1,0,0.2,0.1,0.3,0.2l0.4,0.7c-0.2,0.2-0.4,0.3-0.7,0.4c-0.2,0.1-0.5,0.2-0.7,0.2
		c-0.2,0-0.5,0.1-0.7,0.1c-0.2,0-0.4,0-0.6,0c-0.4-0.1-0.8-0.2-1.1-0.4c-0.3-0.2-0.6-0.4-0.9-0.7c-0.2-0.3-0.4-0.7-0.5-1.1
		c-0.1-0.4-0.1-0.9,0-1.4c0.1-0.4,0.2-0.8,0.4-1.1s0.4-0.6,0.7-0.8c0.3-0.2,0.6-0.4,1-0.5c0.4-0.1,0.8-0.1,1.3-0.1
		c0.4,0.1,0.7,0.2,1,0.3c0.3,0.2,0.6,0.4,0.8,0.7c0.2,0.3,0.3,0.6,0.4,0.9c0.1,0.4,0.1,0.7,0,1.2c0,0.1,0,0.2-0.1,0.3
		c0,0.1-0.1,0.1-0.1,0.2c0,0-0.1,0.1-0.1,0.1c-0.1,0-0.1,0-0.2,0L247.9,69.4z M250.3,68.7c0-0.1,0-0.3,0-0.4s-0.1-0.3-0.1-0.4
		c-0.1-0.1-0.2-0.2-0.3-0.3c-0.1-0.1-0.3-0.1-0.5-0.2c-0.3,0-0.6,0-0.8,0.2c-0.2,0.2-0.4,0.4-0.5,0.8L250.3,68.7z"/>
</g>
<g>
	<g class="st5">
		<g>
			<path class="st0" d="M138.6,140.2c-2.1-6.9-8.1-12.3-15.1-13.7c-1-4.2-3.7-7.7-7.6-9.7c-4.4-2.2-9.8-1.8-13.9,0.9
				c-2.7-2.6-5.9-4.4-9.5-5.3c-4-1-8.5-0.5-12.3,1.1c-6.7,2.8-11.1,9-12.1,16.1c-7.9-0.6-15.5,3.4-19.4,10.5
				c-3.9,7.2-2.9,16.5,2.5,22.6c2.7,3,6,5.1,9.9,6.2c2.6,0.7,5.2,0.7,7.8,0.6l12.6-0.8l25.5-1.7c2.7-0.2,5.3-0.4,8-0.5
				c2.3-0.2,4.6-0.2,6.9-0.5c4.1-0.5,7.9-2.3,11-5C138.8,155.7,140.8,147.5,138.6,140.2z M124.6,161c-2.4,0.8-4.9,0.8-7.5,1
				c-1.4,0.1-2.8,0.2-4.1,0.3c-3.9,0.3-7.8,0.5-11.6,0.8c-6.6,0.4-13.3,0.9-19.9,1.3l-12.6,0.8c-2.6,0.2-4.6,0.1-7.2-0.6
				c-3.2-0.9-6.2-3.2-8.1-6c-3.7-5.2-3.9-12-0.7-17.5c1.5-2.5,3.8-4.6,6.5-6c0.4-0.2,1.4-0.6,2-0.8c0.7-0.2,1.7-0.5,2.2-0.6
				c2-0.4,4.1-0.3,6.1,0.1c1.4,0.3,2.5-0.8,2.5-2.1c0.1-6.3,4.1-12.2,9.9-14.5c3.2-1.3,6.7-1.5,10.2-0.6c1.7,0.4,3.3,1.2,4.8,2.2
				c0.6,0.4,1.3,1,1.9,1.6c0.7,0.6,1.2,1.5,2,1.8c0.6,0.3,1.5,0.3,2.1-0.1c1.7-1.4,3.6-2.3,5.8-2.5c1.8-0.2,3.5,0.1,5.1,0.9
				c3.2,1.5,5.4,4.6,5.8,8c0.1,0.9,0.7,1.8,1.6,1.9c7.5,1,13.4,7,14,14.5C136,152.1,131.4,158.7,124.6,161z M95.4,181.8
				c5.1-0.4,9.8-2.9,13.2-6.7c1.8-2-1.3-4.7-3.1-2.7c-5.5,6.1-14.9,7.1-21.5,2.1c-0.9-0.7-2.1-0.7-2.9,0.2c-0.7,0.8-0.7,2.2,0.2,2.9
				C85.4,180.7,90.3,182.2,95.4,181.8z M113.9,179.2c-4.5,5.1-10.8,8.2-17.4,8.9c-6.7,0.7-13.5-1.2-18.9-5.3
				c-0.9-0.7-2.1-0.7-2.9,0.2c-0.7,0.8-0.7,2.2,0.2,2.9c6.3,4.8,14,7.1,21.9,6.3c7.8-0.7,15-4.5,20.2-10.3
				C118.8,179.9,115.7,177.2,113.9,179.2z"/>
		</g>
	</g>
	<g>
		<g>
			<path class="st6" d="M138.6,139.2c-2.1-6.9-8.1-12.3-15.1-13.7c-1-4.2-3.7-7.7-7.6-9.7c-4.4-2.2-9.8-1.8-13.9,0.9
				c-2.7-2.6-5.9-4.4-9.5-5.3c-4-1-8.5-0.5-12.3,1.1c-6.7,2.8-11.1,9-12.1,16.1c-7.9-0.6-15.5,3.4-19.4,10.5
				c-3.9,7.2-2.9,16.5,2.5,22.6c2.7,3,6,5.1,9.9,6.2c2.6,0.7,5.2,0.7,7.8,0.6l12.6-0.8l25.5-1.7c2.7-0.2,5.3-0.4,8-0.5
				c2.3-0.2,4.6-0.2,6.9-0.5c4.1-0.5,7.9-2.3,11-5C138.8,154.7,140.8,146.5,138.6,139.2z M124.6,160c-2.4,0.8-4.9,0.8-7.5,1
				c-1.4,0.1-2.8,0.2-4.1,0.3c-3.9,0.3-7.8,0.5-11.6,0.8c-6.6,0.4-13.3,0.9-19.9,1.3l-12.6,0.8c-2.6,0.2-4.6,0.1-7.2-0.6
				c-3.2-0.9-6.2-3.2-8.1-6c-3.7-5.2-3.9-12-0.7-17.5c1.5-2.5,3.8-4.6,6.5-6c0.4-0.2,1.4-0.6,2-0.8c0.7-0.2,1.7-0.5,2.2-0.6
				c2-0.4,4.1-0.3,6.1,0.1c1.4,0.3,2.5-0.8,2.5-2.1c0.1-6.3,4.1-12.2,9.9-14.5c3.2-1.3,6.7-1.5,10.2-0.6c1.7,0.4,3.3,1.2,4.8,2.2
				c0.6,0.4,1.3,1,1.9,1.6c0.7,0.6,1.2,1.5,2,1.8c0.6,0.3,1.5,0.3,2.1-0.1c1.7-1.4,3.6-2.3,5.8-2.5c1.8-0.2,3.5,0.1,5.1,0.9
				c3.2,1.5,5.4,4.6,5.8,8c0.1,0.9,0.7,1.8,1.6,1.9c7.5,1,13.4,7,14,14.5C136,151.1,131.4,157.7,124.6,160z M95.4,180.8
				c5.1-0.4,9.8-2.9,13.2-6.7c1.8-2-1.3-4.7-3.1-2.7c-5.5,6.1-14.9,7.1-21.5,2.1c-0.9-0.7-2.1-0.7-2.9,0.2c-0.7,0.8-0.7,2.2,0.2,2.9
				C85.4,179.7,90.3,181.2,95.4,180.8z M113.9,178.2c-4.5,5.1-10.8,8.2-17.4,8.9c-6.7,0.7-13.5-1.2-18.9-5.3
				c-0.9-0.7-2.1-0.7-2.9,0.2c-0.7,0.8-0.7,2.2,0.2,2.9c6.3,4.8,14,7.1,21.9,6.3c7.8-0.7,15-4.5,20.2-10.3
				C118.8,178.9,115.7,176.2,113.9,178.2z"/>
		</g>
	</g>
</g>
<g>
	<path class="st0" d="M64.3,87.7l0.1,2.1l2.9-0.2l0.1,1.5l-2.9,0.2l0.2,3.3l-2,0.1l-0.6-8.4l5.4-0.4l0.1,1.5L64.3,87.7z"/>
	<path class="st0" d="M76.1,93.9L74.4,94c-0.3,0-0.6-0.1-0.7-0.3l-1.6-2.3c-0.1-0.1-0.1-0.2-0.2-0.2c-0.1,0-0.2-0.1-0.3,0l-0.5,0
		l0.2,3.1l-1.9,0.1l-0.6-8.4l2.7-0.2c0.6,0,1.1,0,1.6,0.1c0.4,0.1,0.8,0.2,1.1,0.5c0.3,0.2,0.5,0.5,0.6,0.7s0.2,0.6,0.2,1
		c0,0.3,0,0.5-0.1,0.8c-0.1,0.2-0.1,0.5-0.3,0.7c-0.1,0.2-0.3,0.4-0.5,0.6c-0.2,0.2-0.4,0.3-0.7,0.4c0.1,0.1,0.3,0.1,0.4,0.2
		c0.1,0.1,0.2,0.2,0.3,0.3L76.1,93.9z M71.7,89.7c0.3,0,0.5-0.1,0.7-0.1c0.2-0.1,0.3-0.2,0.4-0.3c0.1-0.1,0.2-0.3,0.2-0.4
		c0-0.2,0.1-0.3,0-0.5c0-0.4-0.2-0.6-0.4-0.8c-0.3-0.2-0.6-0.3-1.1-0.2l-0.8,0.1l0.2,2.5L71.7,89.7z"/>
	<path class="st0" d="M78.4,86.8l0.1,2l2.6-0.2l0.1,1.4l-2.6,0.2l0.1,2l3.4-0.2l0.1,1.5l-5.4,0.4l-0.6-8.4l5.4-0.4l0.1,1.5
		L78.4,86.8z"/>
	<path class="st0" d="M84.9,86.4l0.1,2l2.6-0.2l0.1,1.4l-2.6,0.2l0.1,2l3.4-0.2l0.1,1.5l-5.4,0.4L82.9,85l5.4-0.4l0.1,1.5L84.9,86.4
		z"/>
	<path class="st0" d="M96.4,88.2l3-0.2l0.2,3.5c-0.4,0.3-0.9,0.6-1.3,0.8c-0.5,0.2-1,0.3-1.5,0.3c-0.7,0-1.3,0-1.9-0.2
		s-1.1-0.4-1.5-0.8c-0.4-0.4-0.8-0.8-1-1.3c-0.3-0.5-0.4-1.1-0.4-1.7c0-0.6,0-1.2,0.2-1.7c0.2-0.5,0.4-1,0.8-1.4
		c0.4-0.4,0.8-0.7,1.3-1s1.1-0.4,1.8-0.4c0.3,0,0.7,0,1,0c0.3,0,0.6,0.1,0.9,0.2c0.3,0.1,0.5,0.2,0.7,0.3c0.2,0.1,0.4,0.3,0.6,0.4
		l-0.5,0.9c-0.1,0.1-0.2,0.2-0.3,0.3c-0.1,0-0.3,0-0.5-0.1c-0.2-0.1-0.3-0.2-0.5-0.2c-0.1-0.1-0.3-0.1-0.4-0.1
		c-0.1,0-0.3-0.1-0.5-0.1c-0.2,0-0.3,0-0.5,0c-0.4,0-0.7,0.1-1,0.3c-0.3,0.1-0.5,0.3-0.7,0.6c-0.2,0.2-0.3,0.5-0.4,0.9
		c-0.1,0.3-0.1,0.7-0.1,1.1c0,0.4,0.1,0.8,0.3,1.2c0.1,0.3,0.3,0.6,0.6,0.8c0.2,0.2,0.5,0.4,0.8,0.5c0.3,0.1,0.7,0.1,1.1,0.1
		c0.2,0,0.4-0.1,0.6-0.1c0.2-0.1,0.4-0.1,0.5-0.2l-0.1-1.3l-0.8,0.1c-0.1,0-0.2,0-0.3-0.1c-0.1-0.1-0.1-0.1-0.1-0.2L96.4,88.2z"/>
	<path class="st0" d="M105.7,85.9l0.4,6L105,92c-0.2,0-0.4-0.1-0.5-0.3l-0.1-0.3c-0.1,0.1-0.2,0.2-0.3,0.3c-0.1,0.1-0.2,0.2-0.4,0.3
		c-0.1,0.1-0.3,0.1-0.4,0.2c-0.2,0-0.3,0.1-0.5,0.1c-0.3,0-0.6,0-0.9-0.1c-0.3-0.1-0.5-0.2-0.7-0.4c-0.2-0.2-0.3-0.4-0.4-0.7
		c-0.1-0.3-0.2-0.6-0.2-0.9l-0.3-3.8l1.8-0.1l0.3,3.8c0,0.3,0.1,0.5,0.2,0.7s0.3,0.2,0.6,0.2c0.2,0,0.4-0.1,0.5-0.2
		c0.2-0.1,0.3-0.2,0.5-0.4l-0.3-4.3L105.7,85.9z"/>
	<path class="st0" d="M108.8,84.1c0,0.1,0,0.3-0.1,0.4c0,0.1-0.1,0.2-0.2,0.3c-0.1,0.1-0.2,0.2-0.3,0.2c-0.1,0.1-0.3,0.1-0.4,0.1
		c-0.1,0-0.3,0-0.4-0.1c-0.1,0-0.2-0.1-0.4-0.2c-0.1-0.1-0.2-0.2-0.3-0.3c-0.1-0.1-0.1-0.3-0.1-0.4c0-0.1,0-0.3,0.1-0.4
		c0-0.1,0.1-0.2,0.2-0.3c0.1-0.1,0.2-0.2,0.3-0.2c0.1-0.1,0.3-0.1,0.4-0.1c0.1,0,0.3,0,0.4,0.1c0.1,0,0.3,0.1,0.4,0.2
		c0.1,0.1,0.2,0.2,0.3,0.3C108.7,83.8,108.8,83.9,108.8,84.1z M108.7,85.7l0.4,6l-1.8,0.1l-0.4-6L108.7,85.7z"/>
	<path class="st0" d="M115.2,82.6l0.6,8.6l-1.1,0.1c-0.2,0-0.4-0.1-0.5-0.3l-0.2-0.4c-0.1,0.1-0.2,0.3-0.4,0.4
		c-0.1,0.1-0.3,0.2-0.4,0.3s-0.3,0.2-0.5,0.2c-0.2,0.1-0.4,0.1-0.6,0.1c-0.3,0-0.6,0-0.9-0.1c-0.3-0.1-0.5-0.3-0.7-0.6
		c-0.2-0.2-0.4-0.6-0.5-0.9c-0.1-0.4-0.2-0.8-0.2-1.3c0-0.4,0-0.9,0.1-1.3c0.1-0.4,0.2-0.7,0.5-1c0.2-0.3,0.5-0.5,0.8-0.7
		s0.6-0.3,1-0.3c0.3,0,0.6,0,0.8,0.1c0.2,0.1,0.4,0.2,0.6,0.3l-0.2-3L115.2,82.6z M113.7,87c-0.1-0.1-0.3-0.2-0.5-0.3
		c-0.2,0-0.3-0.1-0.5-0.1c-0.2,0-0.3,0.1-0.4,0.1c-0.1,0.1-0.2,0.2-0.3,0.3c-0.1,0.2-0.2,0.3-0.2,0.6c0,0.2-0.1,0.5,0,0.8
		c0,0.3,0.1,0.6,0.1,0.8c0.1,0.2,0.1,0.4,0.2,0.5c0.1,0.1,0.2,0.2,0.3,0.3c0.1,0,0.2,0.1,0.4,0.1c0.1,0,0.2,0,0.4-0.1
		c0.1,0,0.2-0.1,0.3-0.1c0.1-0.1,0.2-0.1,0.2-0.2c0.1-0.1,0.1-0.2,0.2-0.3L113.7,87z"/>
	<path class="st0" d="M118.3,88.4c0.1,0.5,0.3,0.8,0.5,1.1c0.3,0.2,0.6,0.3,1,0.3c0.2,0,0.4-0.1,0.5-0.1c0.1-0.1,0.3-0.1,0.4-0.2
		c0.1-0.1,0.2-0.1,0.3-0.2c0.1-0.1,0.2-0.1,0.3-0.1c0.1,0,0.3,0,0.3,0.1l0.6,0.6c-0.2,0.2-0.4,0.4-0.6,0.6c-0.2,0.1-0.4,0.3-0.6,0.4
		c-0.2,0.1-0.4,0.2-0.7,0.2c-0.2,0-0.4,0.1-0.6,0.1c-0.4,0-0.8,0-1.2-0.1c-0.4-0.1-0.7-0.3-1-0.5c-0.3-0.3-0.5-0.6-0.7-1
		c-0.2-0.4-0.3-0.8-0.3-1.4c0-0.4,0-0.8,0.1-1.1c0.1-0.4,0.3-0.7,0.5-1c0.2-0.3,0.5-0.5,0.9-0.7s0.8-0.3,1.2-0.3
		c0.4,0,0.8,0,1.1,0.1s0.6,0.3,0.9,0.5c0.3,0.2,0.5,0.5,0.6,0.8c0.2,0.3,0.2,0.7,0.3,1.1c0,0.1,0,0.2,0,0.3c0,0.1,0,0.2,0,0.2
		c0,0.1-0.1,0.1-0.1,0.1c0,0-0.1,0-0.2,0L118.3,88.4z M120.4,87.2c0-0.1,0-0.3-0.1-0.4c0-0.1-0.1-0.2-0.2-0.3
		c-0.1-0.1-0.2-0.2-0.3-0.2c-0.1-0.1-0.3-0.1-0.5-0.1c-0.3,0-0.6,0.1-0.8,0.3c-0.2,0.2-0.3,0.5-0.3,0.9L120.4,87.2z"/>
</g>
<g>
	<path class="st1" d="M71,213.9c-0.4-0.4-0.8-0.7-1.6-0.6c-1.4,0.2-2.1,1.5-2.4,2.7h4.7c0-0.1,0-0.2,0-0.3
		C71.7,215.1,71.5,214.3,71,213.9z"/>
	<path class="st1" d="M150.6,204.9c-3.3-1-5.4,3.1-4.5,5.8c0.1,0.3,0.2,0.6,0.5,0.8c0.7,0.6,1.7,0.4,2.3-0.1
		c0.8-0.6,1.2-1.5,1.4-2.5c0.1-0.7,0.2-1.5,0.2-2.3c0-0.1,0-0.2,0-0.3C150.6,206.1,150.7,204.9,150.6,204.9z"/>
	<path class="st1" d="M128.4,213.2c0.5-1,0.8-2.3,0.8-3.5c0-0.7-0.3-1.4-0.7-1.9c-0.4-0.4-0.8-0.7-1.6-0.6c-1.4,0.2-2.1,1.5-2.4,2.7
		c-0.2,0.8-0.3,1.7-0.2,2.5c0.1,0.8,0.5,1.5,1.2,1.8c0.7,0.3,1.5,0.2,2.2-0.2C128,213.7,128.3,213.5,128.4,213.2z"/>
	<path class="st1" d="M92.8,214.4c0.1-1.1,0.2-2.3,0.3-3.4c-1-0.3-2-0.2-2.9,0.5c-1,0.7-1.5,2-1.7,3.1c-0.1,0.4-0.1,0.9-0.1,1.4h4.1
		c0.1-0.3,0.2-0.7,0.2-1.1C92.8,214.8,92.8,214.6,92.8,214.4z"/>
	<path class="st0" d="M156.4,199.4l-0.2-1.5l-0.1-0.3l0.9,1.3c0,0.1,0.1,0.1,0.2,0.1l0.1,0c0.1,0,0.1-0.1,0.1-0.1l0.6-1.4l0,0.3
		l0.2,1.5l0.4,0l-0.3-2.4l-0.4,0c-0.1,0-0.1,0-0.1,0s-0.1,0,0,0.1l-0.6,1.3c0,0.1,0,0.1,0,0.1c0,0.1,0,0.1,0,0.1
		c0-0.1-0.1,0-0.1-0.1c0-0.1-0.1,0-0.1-0.1l-0.7-1.2l-0.1,0c-0.1,0-0.1,0-0.1,0l-0.4,0l0.3,2.3L156.4,199.4z"/>
	<polygon class="st0" points="154.1,197.7 154.3,199.7 154.8,199.6 154.6,197.7 155.3,197.6 155.2,197.2 153.3,197.4 153.4,197.8 	
		"/>
	<path class="st0" d="M52.2,212.6c0.8-0.8,1.7-1.4,2.8-1.7c0.7-0.2,1.6-0.2,2.3-0.2c0.2,0,1.4,0.2,1.4,0.2l0.6-2.2
		c0,0-1.2-0.6-3.4-0.3c-2,0.2-3.9,0.9-5.3,2.3c-1.4,1.4-2.4,3.1-2.7,5.1c0,0,0,0.1,0,0.1h2.8C50.9,214.8,51.4,213.5,52.2,212.6z"/>
	<polygon class="st0" points="63.6,207.1 60.9,207.4 60.2,216 62.9,216 	"/>
	<path class="st0" d="M69.4,213.3c0.8-0.1,1.2,0.1,1.6,0.6c0.5,0.4,0.7,1.2,0.7,1.8c0,0.1,0,0.2,0,0.3h2.7c0-0.2,0-0.4,0-0.6
		c0-0.4-0.1-2.2-1.5-3.3c-0.8-0.7-1.9-0.9-2.9-0.9c-0.2,0-0.3,0-0.5,0c-1.6,0.1-3.1,0.9-4,2.1c-0.7,0.9-1.2,1.8-1.4,2.8H67
		C67.3,214.8,68,213.5,69.4,213.3z"/>
	<path class="st0" d="M130.6,214.3c1.2-1.4,1.6-3.3,1.4-5.1c-0.1-1-0.4-2.1-1.1-2.9c-0.1-0.1-0.2-0.2-0.4-0.3
		c-0.8-0.7-1.8-0.9-2.9-1c-0.2,0-0.3,0-0.5,0c-1.6,0.1-3.1,0.9-4,2.1c-1.4,1.7-2,4.1-1.4,6.2c0.4,1.3,1.2,2.2,2.2,2.7h4.5
		C129.2,215.6,130,215,130.6,214.3z M125.5,214.2c-0.7-0.3-1.2-1.1-1.2-1.8c-0.1-0.8,0-1.7,0.2-2.5c0.3-1.2,1-2.6,2.4-2.7
		c0.8-0.1,1.2,0.1,1.6,0.6c0.5,0.5,0.7,1.2,0.7,1.9c0,1.3-0.3,2.5-0.8,3.5c-0.2,0.3-0.4,0.6-0.7,0.8
		C127.1,214.4,126.2,214.5,125.5,214.2z"/>
	<path class="st0" d="M85.2,209.7l-2.6,0.3c0,0-0.1,3.1-0.5,5.7c0,0.1,0,0.2-0.1,0.3h2.8L85.2,209.7z"/>
	<path class="st0" d="M78.5,210.4l-2.6,0.3c0,0-0.3,2.8-0.5,5.3h2.7L78.5,210.4z"/>
	<path class="st0" d="M135.5,209.8c0.2-1.4,1.2-4.1,3.1-3.6c0.2,0,0.3,0.1,0.5,0.2c0.5,0.5,0.6,1.6,0.5,2.3L139,215l2.7-0.3
		c0,0,0.7-6.2,0.5-8.1c-0.2-2-1.2-3-3.2-2.8c-2.3,0.2-3.4,2.6-3.4,2.6l0-1.9l-2.4,0.3l-0.8,11.1l2.7-0.3
		C135.2,215.5,135.3,212.4,135.5,209.8z"/>
	<path class="st0" d="M88.5,214.6c0.2-1.1,0.7-2.4,1.7-3.1c0.9-0.6,1.9-0.8,2.9-0.5c-0.1,1.1-0.2,2.3-0.3,3.4c0,0.2,0,0.4,0,0.6
		c0,0.4-0.1,0.7-0.2,1.1h2.9c0.1-1.1,0.2-2.1,0.3-3.2c0.2-1.1,0.3-2.2,0.4-3.3c0.2-1.1,0.3-2.2,0.4-3.3c0.3-1.9,0.8-3.7,2-5.3
		c0.3-0.4,0.6-0.8,1-1.1c0.3-0.3,0.6-0.5,1-0.8c0.1-0.1,0.3-0.2,0.4-0.2c-1.6,0.4-3.2,1.2-4.4,2.4c-0.7,0.5-1.1,1.2-1.5,1.9
		c-0.5,0.9-0.9,1.8-1.2,2.9c-0.2,0.9-0.4,1.8-0.5,2.8c0-0.2-1.9,0-2,0c-1.7,0.2-3.3,1.2-4.3,2.6c-0.8,1.1-1.2,2.4-1.3,3.7
		c0,0.3-0.1,0.6-0.1,0.9h2.7C88.4,215.5,88.4,215,88.5,214.6z"/>
	<path class="st0" d="M107.3,213c0-0.1,0-0.1-0.1-0.1c-0.4-1-1.1-1.8-2.1-2.2c-0.6-0.3-1.4-0.6-2-0.9c-0.6-0.3-1.2-0.7-1.5-1.3
		c-0.2-0.5-0.1-1.1,0.2-1.5c0.4-0.7,1.1-1,2-1.1c1.8-0.1,2.4,0.1,2.9,0.3l0.6-2.3c0,0-1.4-0.6-3.3-0.4c-1.3,0.1-2.6,0.6-3.6,1.4
		c-1.2,0.9-1.7,2.1-1.6,3.7c0.1,1.2,0.8,2.4,2.1,3.2c1.2,0.7,3.6,1.2,3.6,2.7c0,0.7-0.3,1.2-0.7,1.6h3.2
		C107.6,215,107.7,213.9,107.3,213z"/>
	<path class="st0" d="M113.7,215.8c-0.3,0-0.7,0.1-0.9,0.1c-0.9,0-1-0.5-1-1.1c0-0.4,0-0.7,0-0.7l0.4-4.9l2.5-0.3l0.1-2.1l-2.4,0.3
		l0.2-2.9l-2.7,1.2l-0.1,2l-1.5,0.2l-0.1,2.1l1.5-0.2c0,0-0.5,4.3-0.5,6.5h4.6L113.7,215.8z"/>
	<path class="st0" d="M118,212.4c0.2-1.7,0.7-2.5,1.3-3.2c0.8-1,2.1-0.9,2.1-0.9l0.2-2.6c-2.6,0-3.5,2.3-3.6,2.6l0,0c0,0,0,0,0,0
		l-0.1-2.1l-2.3,0.3c0,0.2,0,2.5,0,3.1c0,0.6-0.1,1.8-0.1,1.8l-0.3,4.6h2.6C117.8,214.9,117.9,213.4,118,212.4z"/>
	<path class="st0" d="M118.1,208.4L118.1,208.4C118,208.4,118,208.4,118.1,208.4z"/>
	<path class="st0" d="M152.6,212c0.1-1.5,0.2-3,0.3-4.6c0.1-1,0.2-2,0.3-3.1c0-0.1,0.1-1.3,0.1-1.4c-1.2-0.3-2.5-0.4-3.7-0.3
		c-3.7,0.5-6.6,3.4-6.5,7.2c0.1,1.7,0.6,3.4,2.3,4.1c1,0.3,2.1,0.2,3-0.3c0.4-0.2,0.8-0.5,1.1-0.9c0.2-0.2,0.6-0.6,0.6-0.9
		c-0.1,1-0.2,2.1-0.7,3c-0.2,0.5-0.5,0.8-0.9,1.2h3.1C152.3,214.8,152.5,213.3,152.6,212z M150.5,206.5c-0.1,0.8-0.1,1.6-0.2,2.3
		c-0.2,0.9-0.6,1.9-1.4,2.5c-0.7,0.5-1.7,0.8-2.3,0.1c-0.2-0.2-0.3-0.5-0.5-0.8c-0.9-2.7,1.2-6.8,4.5-5.8c0.1,0,0,1.2-0.1,1.3
		C150.5,206.4,150.5,206.5,150.5,206.5z"/>
</g>
<rect x="213.8" y="-28.4" transform="matrix(0.1411 -0.99 0.99 0.1411 160.3788 263.9833)" class="st1" width="37" height="135.8"/>
<text transform="matrix(0.99 0.141 -0.141 0.99 201.9147 29.6204)"><tspan x="0" y="0" class="st3 st7 st8">Cloud for </tspan><tspan x="-11.3" y="17" class="st3 st7 st8">Accountants</tspan></text>
<rect x="20" y="32.9" transform="matrix(0.9978 -6.607293e-02 6.607293e-02 0.9978 -3.5016 5.9279)" class="st1" width="135.8" height="46"/>
<text transform="matrix(0.9978 -6.607000e-02 6.607000e-02 0.9978 43.5423 53.9989)"><tspan x="0" y="0" class="st0 st7 st9">Cloud for </tspan><tspan x="-15.8" y="21" class="st0 st7 st9">Accountants</tspan></text>
</svg>
