<?xml version="1.0" encoding="utf-8"?>
<!-- Generator: Adobe Illustrator 19.2.1, SVG Export Plug-In . SVG Version: 6.00 Build 0)  -->
<svg version="1.1" id="Layer_1" xmlns="http://www.w3.org/2000/svg" xmlns:xlink="http://www.w3.org/1999/xlink" x="0px" y="0px"
	 viewBox="0 0 168 118" style="enable-background:new 0 0 168 118;"  width="168" height="118" xml:space="preserve">
<style type="text/css">
	.st0{fill:#FFFFFF;}
	.st1{fill:#CCCCCC;}
	.st2{fill:#E5E5E5;}
	.st3{fill:#1370CE;}
</style>
<g>
	<g>
		<path class="st0" d="M141.1,106.2H6.3c-1.4,0-2.5-1.1-2.5-2.5V5.1c0-1.4,1.1-2.5,2.5-2.5h134.7c1.4,0,2.5,1.1,2.5,2.5v98.6
			C143.5,105.1,142.4,106.2,141.1,106.2z"/>
		<path class="st1" d="M141.1,107.4H6.3c-2,0-3.6-1.6-3.6-3.6V5.1c0-2,1.6-3.6,3.6-3.6h134.7c2,0,3.6,1.6,3.6,3.6v98.6
			C144.7,105.7,143.1,107.4,141.1,107.4z M6.3,3.8C5.6,3.8,5,4.4,5,5.1v98.6c0,0.7,0.6,1.3,1.3,1.3h134.7c0.7,0,1.3-0.6,1.3-1.3V5.1
			c0-0.7-0.6-1.3-1.3-1.3H6.3z"/>
	</g>
	<g>
		<path class="st0" d="M159.3,115.3h-47.7c-2.6,0-4.8-2.1-4.8-4.8v-94c0-2.6,2.1-4.8,4.8-4.8h47.7c2.6,0,4.8,2.1,4.8,4.8v94
			C164.1,113.2,162,115.3,159.3,115.3z"/>
		<path class="st1" d="M159.3,116.5h-47.7c-3.3,0-5.9-2.6-5.9-5.9v-94c0-3.3,2.6-5.9,5.9-5.9h47.7c3.3,0,5.9,2.6,5.9,5.9v94
			C165.2,113.8,162.6,116.5,159.3,116.5z M111.6,12.9c-2,0-3.7,1.6-3.7,3.7v94c0,2,1.6,3.7,3.7,3.7h47.7c2,0,3.7-1.6,3.7-3.7v-94
			c0-2-1.6-3.7-3.7-3.7H111.6z"/>
	</g>
	<g>
		<path class="st2" d="M160.7,11.8h-50.4c-1.9,0-3.4,1.5-3.4,3.4v12.6h57.3V15.2C164.1,13.3,162.6,11.8,160.7,11.8z"/>
		<path class="st1" d="M165.2,28.9h-59.5V15.2c0-2.5,2-4.6,4.6-4.6h50.4c2.5,0,4.6,2,4.6,4.6V28.9z M108,26.7h55V15.2
			c0-1.3-1-2.3-2.3-2.3h-50.4c-1.3,0-2.3,1-2.3,2.3V26.7z"/>
	</g>
	<g>
		<g>
			<circle class="st0" cx="118.8" cy="19.8" r="3.2"/>
			<path class="st1" d="M118.8,24.1c-2.4,0-4.3-1.9-4.3-4.3c0-2.4,1.9-4.3,4.3-4.3c2.4,0,4.3,1.9,4.3,4.3
				C123.1,22.2,121.2,24.1,118.8,24.1z M118.8,17.7c-1.2,0-2.1,0.9-2.1,2.1s0.9,2.1,2.1,2.1s2.1-0.9,2.1-2.1S119.9,17.7,118.8,17.7z
				"/>
		</g>
		<g>
			<g>
				<path class="st1" d="M118.8,16.6L118.8,16.6c-0.6,0-1.1-0.5-1.1-1.1v-8c0-0.6,0.5-1.1,1.1-1.1l0,0c0.6,0,1.1,0.5,1.1,1.1v8
					C119.9,16.1,119.4,16.6,118.8,16.6z"/>
			</g>
		</g>
	</g>
	<g>
		<g>
			<circle class="st0" cx="152.1" cy="19.8" r="3.2"/>
			<path class="st1" d="M152.1,24.1c-2.4,0-4.3-1.9-4.3-4.3c0-2.4,1.9-4.3,4.3-4.3c2.4,0,4.3,1.9,4.3,4.3
				C156.5,22.2,154.5,24.1,152.1,24.1z M152.1,17.7c-1.2,0-2.1,0.9-2.1,2.1s0.9,2.1,2.1,2.1c1.2,0,2.1-0.9,2.1-2.1
				S153.3,17.7,152.1,17.7z"/>
		</g>
		<g>
			<g>
				<path class="st1" d="M152.1,16.6L152.1,16.6c-0.6,0-1.1-0.5-1.1-1.1v-8c0-0.6,0.5-1.1,1.1-1.1l0,0c0.6,0,1.1,0.5,1.1,1.1v8
					C153.2,16.1,152.7,16.6,152.1,16.6z"/>
			</g>
		</g>
	</g>
	<g>
		<g>
			<circle class="st0" cx="135.5" cy="19.8" r="3.2"/>
			<path class="st1" d="M135.5,24.1c-2.4,0-4.3-1.9-4.3-4.3c0-2.4,1.9-4.3,4.3-4.3c2.4,0,4.3,1.9,4.3,4.3
				C139.8,22.2,137.9,24.1,135.5,24.1z M135.5,17.7c-1.2,0-2.1,0.9-2.1,2.1s0.9,2.1,2.1,2.1s2.1-0.9,2.1-2.1S136.7,17.7,135.5,17.7z
				"/>
		</g>
		<g>
			<g>
				<path class="st1" d="M135.5,16.6L135.5,16.6c-0.6,0-1.1-0.5-1.1-1.1v-8c0-0.6,0.5-1.1,1.1-1.1l0,0c0.6,0,1.1,0.5,1.1,1.1v8
					C136.6,16.1,136.1,16.6,135.5,16.6z"/>
			</g>
		</g>
	</g>
	<g>
		<g>
			<path class="st3" d="M144.1,37.9L144.1,37.9c0,0.6-0.5,1.1-1.1,1.1h-28.2c-0.6,0-1.1-0.5-1.1-1.1l0,0c0-0.6,0.5-1.1,1.1-1.1H143
				C143.6,36.7,144.1,37.2,144.1,37.9z"/>
		</g>
	</g>
	<g>
		<g>
			<path class="st3" d="M155.5,46.3L155.5,46.3c0,0.6-0.5,1.1-1.1,1.1h-39.7c-0.6,0-1.1-0.5-1.1-1.1l0,0c0-0.6,0.5-1.1,1.1-1.1h39.7
				C155,45.2,155.5,45.7,155.5,46.3z"/>
		</g>
	</g>
	<g>
		<g>
			<path class="st3" d="M145.2,54.8L145.2,54.8c0,0.6-0.5,1.1-1.1,1.1h-29.4c-0.6,0-1.1-0.5-1.1-1.1v0c0-0.6,0.5-1.1,1.1-1.1h29.4
				C144.7,53.7,145.2,54.2,145.2,54.8z"/>
		</g>
	</g>
	<g>
		<g>
			<path class="st3" d="M156.1,54.8L156.1,54.8c0,0.6-0.5,1.1-1.1,1.1h-5.5c-0.6,0-1.1-0.5-1.1-1.1v0c0-0.6,0.5-1.1,1.1-1.1h5.5
				C155.6,53.7,156.1,54.2,156.1,54.8z"/>
		</g>
	</g>
	<g>
		<g>
			<path class="st3" d="M125.6,80.3L125.6,80.3c0-0.6,0.5-1.1,1.1-1.1H155c0.6,0,1.1,0.5,1.1,1.1l0,0c0,0.6-0.5,1.1-1.1,1.1h-28.2
				C126.1,81.4,125.6,80.9,125.6,80.3z"/>
		</g>
	</g>
	<g>
		<g>
			<path class="st3" d="M114.2,71.8L114.2,71.8c0-0.6,0.5-1.1,1.1-1.1H155c0.6,0,1.1,0.5,1.1,1.1l0,0c0,0.6-0.5,1.1-1.1,1.1h-39.7
				C114.7,72.9,114.2,72.4,114.2,71.8z"/>
		</g>
	</g>
	<g>
		<g>
			<path class="st3" d="M114.2,88.8L114.2,88.8c0-0.6,0.5-1.1,1.1-1.1H155c0.6,0,1.1,0.5,1.1,1.1l0,0c0,0.6-0.5,1.1-1.1,1.1h-39.7
				C114.7,89.9,114.2,89.4,114.2,88.8z"/>
		</g>
	</g>
	<g>
		<g>
			<path class="st3" d="M124.5,63.3L124.5,63.3c0-0.6,0.5-1.1,1.1-1.1H155c0.6,0,1.1,0.5,1.1,1.1v0c0,0.6-0.5,1.1-1.1,1.1h-29.4
				C125,64.4,124.5,63.9,124.5,63.3z"/>
		</g>
	</g>
	<g>
		<g>
			<path class="st3" d="M113.6,63.3L113.6,63.3c0-0.6,0.5-1.1,1.1-1.1h5.5c0.6,0,1.1,0.5,1.1,1.1v0c0,0.6-0.5,1.1-1.1,1.1h-5.5
				C114.1,64.4,113.6,63.9,113.6,63.3z"/>
		</g>
	</g>
	<g>
		<path class="st0" d="M54.2,68H18.5c-1.7,0-3.1-1.4-3.1-3.1V17.6c0-1.7,1.4-3.1,3.1-3.1h35.7c1.7,0,3.1,1.4,3.1,3.1v47.2
			C57.3,66.6,55.9,68,54.2,68z"/>
		<path class="st1" d="M54.2,69.1H18.5c-2.3,0-4.2-1.9-4.2-4.2V17.6c0-2.3,1.9-4.2,4.2-4.2h35.7c2.3,0,4.2,1.9,4.2,4.2v47.2
			C58.4,67.2,56.5,69.1,54.2,69.1z M18.5,15.6c-1.1,0-2,0.9-2,2v47.2c0,1.1,0.9,2,2,2h35.7c1.1,0,2-0.9,2-2V17.6c0-1.1-0.9-2-2-2
			H18.5z"/>
	</g>
	<g>
		<path class="st2" d="M37.2,14.5l3.9,6.9h16.1v-4.7c0-1.2-1-2.2-2.2-2.2H37.2z"/>
		<path class="st1" d="M58.4,22.5H40.5l-5.2-9.2H55c1.8,0,3.4,1.5,3.4,3.4V22.5z M41.8,20.3h14.3v-3.6c0-0.6-0.5-1.1-1.1-1.1H39.2
			L41.8,20.3z"/>
	</g>
	<g>
		<path class="st2" d="M33.9,33.5h-7.7v-7.7h7.7V33.5z M28.5,31.2h3.2v-3.2h-3.2V31.2z"/>
	</g>
	<g>
		<path class="st2" d="M33.9,48.4h-7.7v-7.7h7.7V48.4z M28.5,46.1h3.2v-3.2h-3.2V46.1z"/>
	</g>
	<g>
		<path class="st2" d="M33.9,63.3h-7.7v-7.7h7.7V63.3z M28.5,61.1h3.2v-3.2h-3.2V61.1z"/>
	</g>
	<g>
		<g>
			<line class="st0" x1="37.1" y1="29.3" x2="51.9" y2="29.3"/>
		</g>
		<g>
			<path class="st1" d="M50.8,30.4H38.3c-0.6,0-1.1-0.5-1.1-1.1v0c0-0.6,0.5-1.1,1.1-1.1h12.5c0.6,0,1.1,0.5,1.1,1.1v0
				C51.9,29.9,51.4,30.4,50.8,30.4z"/>
		</g>
	</g>
	<g>
		<g>
			<line class="st0" x1="37.1" y1="44.5" x2="51.9" y2="44.5"/>
		</g>
		<g>
			<path class="st1" d="M50.8,45.7H38.3c-0.6,0-1.1-0.5-1.1-1.1l0,0c0-0.6,0.5-1.1,1.1-1.1h12.5c0.6,0,1.1,0.5,1.1,1.1l0,0
				C51.9,45.2,51.4,45.7,50.8,45.7z"/>
		</g>
	</g>
	<g>
		<g>
			<line class="st0" x1="37.1" y1="59.5" x2="51.9" y2="59.5"/>
		</g>
		<g>
			<path class="st1" d="M50.8,60.6H38.3c-0.6,0-1.1-0.5-1.1-1.1l0,0c0-0.6,0.5-1.1,1.1-1.1h12.5c0.6,0,1.1,0.5,1.1,1.1l0,0
				C51.9,60.1,51.4,60.6,50.8,60.6z"/>
		</g>
	</g>
	<g>
		<rect x="20" y="36.4" class="st2" width="32.7" height="1.1"/>
	</g>
	<g>
		<rect x="20" y="51.2" class="st2" width="32.7" height="1.1"/>
	</g>
	<g>
		<circle class="st1" cx="22.1" cy="29.6" r="1.4"/>
	</g>
	<g>
		<circle class="st1" cx="22.1" cy="44.5" r="1.4"/>
	</g>
	<g>
		<circle class="st1" cx="22.1" cy="59.5" r="1.4"/>
	</g>
	<g>
		<g>
			<g>
				<path class="st2" d="M84.9,56c0.7-0.1,1.2,0.1,1.7,0.6l5.6,5.7c0.3,0.3,0.5,0.6,0.7,1c0.2,0.4,0.3,0.8,0.4,1.2c0,0,0,0.1,0,0.3
					c0,0.1,0,0.3,0,0.6c0,0.5-0.1,1.4-0.3,2.6c-0.2,1.2-0.6,2.7-1.4,4.4c-0.7,1.8-1.8,3.7-3.3,6c-1.5,2.2-3.4,4.6-6,7.1
					c-2,2-3.8,3.6-5.6,5c-1.8,1.3-3.5,2.4-5,3.2c-1.5,0.8-2.9,1.4-4.1,1.8c-1.2,0.4-2.3,0.7-3.2,0.8c-0.9,0.1-1.6,0.2-2.1,0.2
					c-0.5,0-0.8,0-0.9,0c-0.4-0.1-0.8-0.2-1.2-0.4c-0.4-0.2-0.7-0.4-1-0.7l-5.7-5.7c-0.4-0.4-0.6-0.9-0.6-1.4c0-0.4,0.1-0.7,0.3-1
					c0.2-0.3,0.5-0.5,0.8-0.7l8.7-4.6c0.5-0.3,1-0.3,1.5-0.2c0.5,0.1,1,0.4,1.4,0.7l2.1,2.1c0.1,0.1,0.1,0.1,0.3,0.1
					c0.1,0,0.2,0.1,0.3,0.1c0.6-0.1,1.3-0.4,2-0.8c0.7-0.3,1.5-0.9,2.5-1.6c1-0.7,2.1-1.7,3.4-3c1.3-1.3,2.3-2.4,3.1-3.4
					c0.7-1,1.3-1.8,1.6-2.5c0.3-0.7,0.5-1.2,0.6-1.5l0.1-0.5c0-0.1,0-0.1-0.1-0.3c0-0.1-0.1-0.2-0.1-0.3L79,68.3
					c-0.5-0.5-0.7-1.1-0.7-1.8c0-0.5,0.1-0.9,0.3-1.2v0l4.9-8.2C83.8,56.4,84.3,56.1,84.9,56L84.9,56z M84.9,56"/>
				<path class="st1" d="M62.7,97.4c-0.1,0-0.2,0-0.3,0c-0.5,0-0.7,0-0.8,0l-0.1,0c-0.5-0.1-1-0.2-1.5-0.5c-0.5-0.3-1-0.6-1.4-1
					l-5.6-5.6c-0.6-0.6-0.9-1.4-0.9-2.2c0-0.6,0.2-1.2,0.5-1.7c0.3-0.4,0.7-0.7,1.1-1l8.7-4.6c0.7-0.4,1.4-0.5,2.2-0.3
					c0.8,0.2,1.4,0.5,1.9,1l1.9,1.9c0.4-0.1,0.9-0.3,1.5-0.6c0.6-0.3,1.4-0.8,2.4-1.5c0.9-0.7,2-1.6,3.3-2.9
					c1.3-1.2,2.3-2.4,2.9-3.3c0.7-0.9,1.2-1.7,1.5-2.3c0.4-0.8,0.5-1.1,0.5-1.2l0-0.2l-2.3-2.3c-0.7-0.8-1-1.6-1-2.6
					c0-0.5,0.1-1,0.3-1.4v0l0.2-0.3l4.9-8.2c0.7-1.1,1.5-1.5,2.2-1.6l0.1,0c1-0.1,1.9,0.2,2.6,0.9l5.6,5.7c0.3,0.3,0.7,0.8,0.9,1.3
					c0.2,0.5,0.4,1,0.5,1.5l0,0.3c0,0.2,0,0.4,0,0.7c0,0.6-0.1,1.5-0.3,2.8c-0.2,1.3-0.7,2.8-1.4,4.7c-0.8,1.8-1.9,3.9-3.4,6.1
					c-1.5,2.3-3.5,4.7-6.1,7.3c-2,2-3.9,3.7-5.8,5.1c-1.8,1.3-3.5,2.4-5.1,3.2c-1.6,0.8-3,1.5-4.3,1.9c-1.3,0.4-2.4,0.7-3.4,0.9
					C63.9,97.3,63.2,97.4,62.7,97.4z M61.7,95.1c0.1,0,0.4,0,0.8,0c0.3,0,0.9,0,1.9-0.2c0.8-0.1,1.9-0.4,3-0.8c1.2-0.4,2.5-1,4-1.7
					c1.5-0.8,3.1-1.8,4.8-3.1c1.7-1.3,3.6-2.9,5.5-4.8c2.5-2.4,4.4-4.8,5.8-6.9c1.4-2.1,2.5-4.1,3.2-5.8c0.7-1.7,1.1-3.1,1.3-4.2
					c0.2-1.4,0.3-2.1,0.3-2.5c0-0.2,0-0.3,0-0.4c0-0.1,0-0.2,0-0.2c0-0.3-0.1-0.6-0.3-0.9c-0.1-0.3-0.3-0.5-0.5-0.7l-5.7-5.7
					c-0.2-0.2-0.4-0.3-0.7-0.3c-0.2,0-0.4,0.1-0.6,0.5l-4.9,8.3c0,0-0.1,0.2-0.1,0.6c0,0.4,0.1,0.7,0.4,1l2.4,2.4
					c0.2,0.2,0.3,0.4,0.4,0.7c0.1,0.3,0.1,0.4,0.1,0.6l0,0.2L82.7,72c-0.1,0.5-0.3,1-0.7,1.8c-0.4,0.7-0.9,1.6-1.7,2.6
					c-0.8,1-1.8,2.2-3.2,3.6c-1.3,1.3-2.5,2.4-3.5,3.1c-1,0.8-1.9,1.3-2.7,1.7c-0.9,0.4-1.6,0.7-2.3,0.9l-0.2,0
					c-0.2,0-0.4,0-0.7-0.1c-0.3-0.1-0.5-0.2-0.7-0.4l-2.1-2.1c-0.2-0.2-0.5-0.4-0.8-0.4c-0.3-0.1-0.5,0-0.7,0.1l-8.7,4.6
					c-0.1,0.1-0.3,0.2-0.4,0.4c-0.1,0.1-0.1,0.2-0.1,0.3c0,0.2,0,0.3,0.3,0.6l5.7,5.7c0.2,0.2,0.4,0.4,0.7,0.5
					C61.1,95,61.4,95.1,61.7,95.1z M80.7,71.5C80.7,71.5,80.7,71.5,80.7,71.5L80.7,71.5z"/>
			</g>
		</g>
	</g>
</g>
</svg>
