<?xml version="1.0" encoding="utf-8"?>
<!-- Generator: Adobe Illustrator 19.2.1, SVG Export Plug-In . SVG Version: 6.00 Build 0)  -->
<svg version="1.1" id="Layer_1" xmlns="http://www.w3.org/2000/svg" xmlns:xlink="http://www.w3.org/1999/xlink" x="0px" y="0px"
	 viewBox="0 0 446 213"  width="446" height="213" style="enable-background:new 0 0 446 213;" xml:space="preserve">
<style type="text/css">
	.st0{fill:#FFFFFF;}
</style>
<g>
	<path class="st0" d="M194.3,106c0,3.2-0.6,6-1.7,8.4c-1.2,2.4-2.8,4.3-5,5.5c-2.2,1.3-4.7,1.9-7.5,1.9c-2.7,0-5.2-0.6-7.3-1.9
		c-2.1-1.3-3.8-3.1-5-5.4c-1.2-2.3-1.8-4.9-1.8-7.9c0-3.2,0.6-5.9,1.8-8.4c1.2-2.4,2.9-4.3,5.1-5.5c2.2-1.3,4.8-1.9,7.7-1.9
		c2.7,0,5,0.6,7.2,1.9c2.1,1.3,3.7,3.1,4.9,5.3C193.8,100.4,194.3,103,194.3,106 M190.7,106.4c0-3.9-0.9-6.9-2.7-9.1
		c-1.8-2.2-4.4-3.3-7.6-3.3c-2,0-3.9,0.5-5.5,1.6c-1.6,1-2.9,2.5-3.8,4.4c-0.9,1.9-1.3,4-1.3,6.4c0,2.4,0.4,4.5,1.3,6.4
		c0.9,1.9,2.1,3.3,3.7,4.3c1.6,1,3.4,1.5,5.4,1.5c3.3,0,5.9-1.1,7.8-3.3C189.7,113.3,190.7,110.3,190.7,106.4"/>
	<path class="st0" d="M209.4,92.7c-0.7-0.4-1.4-0.6-2.3-0.6c-2.4,0-3.6,1.5-3.6,4.5v3.3h5v2.9h-5v18.5h-3.4v-18.5h-3.6v-2.9h3.6
		v-3.5c0-2.2,0.6-3.9,1.9-5.3c1.3-1.3,2.9-2,4.9-2c1,0,1.9,0.1,2.5,0.4V92.7z"/>
	<path class="st0" d="M221.2,92.7c-0.7-0.4-1.4-0.6-2.3-0.6c-2.4,0-3.6,1.5-3.6,4.5v3.3h5v2.9h-5v18.5h-3.4v-18.5h-3.6v-2.9h3.6
		v-3.5c0-2.2,0.6-3.9,1.9-5.3c1.3-1.3,2.9-2,4.9-2c1,0,1.9,0.1,2.5,0.4V92.7z"/>
	<path class="st0" d="M227.5,92.3c0,0.6-0.2,1.2-0.7,1.6c-0.4,0.4-1,0.6-1.6,0.6c-0.6,0-1.2-0.2-1.6-0.6c-0.4-0.4-0.6-1-0.6-1.6
		c0-0.6,0.2-1.1,0.6-1.6c0.4-0.4,1-0.7,1.6-0.7c0.6,0,1.2,0.2,1.6,0.6C227.3,91.1,227.5,91.7,227.5,92.3 M227,121.3h-3.4V99.9h3.4
		V121.3z"/>
	<path class="st0" d="M246.5,120.4c-1.7,1-3.6,1.5-5.9,1.5c-1.9,0-3.7-0.5-5.3-1.3c-1.6-0.9-2.8-2.2-3.6-3.8
		c-0.9-1.6-1.3-3.5-1.3-5.5c0-3.5,1-6.4,3-8.5c2-2.1,4.7-3.2,8.1-3.2c1.9,0,3.5,0.4,5,1.1v3.5c-1.6-1.1-3.3-1.7-5.1-1.7
		c-2.2,0-4,0.8-5.4,2.4c-1.4,1.6-2.1,3.6-2.1,6.1c0,2.5,0.7,4.5,2,5.9c1.3,1.4,3.1,2.2,5.3,2.2c1.9,0,3.6-0.6,5.3-1.8V120.4z"/>
	<path class="st0" d="M267.6,111.5h-15.1c0.1,2.4,0.7,4.3,1.9,5.5c1.2,1.3,2.9,1.9,5.1,1.9c2.4,0,4.6-0.8,6.6-2.3v3.2
		c-1.9,1.4-4.3,2.1-7.4,2.1c-3.1,0-5.4-1-7.2-3c-1.7-2-2.6-4.7-2.6-8.2c0-2.1,0.4-4.1,1.3-5.8c0.9-1.7,2-3.1,3.5-4.1
		c1.5-1,3.2-1.4,5-1.4c2.8,0,4.9,0.9,6.5,2.7c1.6,1.8,2.3,4.3,2.3,7.6V111.5z M264.1,108.6c0-2-0.5-3.5-1.4-4.6
		c-0.9-1.1-2.2-1.6-3.9-1.6c-1.6,0-2.9,0.6-4.1,1.7c-1.1,1.1-1.8,2.7-2.1,4.5H264.1z"/>
	<path class="st0" d="M293.7,112.9c0,2.7-1,4.9-2.9,6.5c-1.9,1.7-4.5,2.5-7.6,2.5c-2.9,0-5.1-0.5-6.8-1.6v-3.7
		c2,1.6,4.3,2.4,6.9,2.4c2.1,0,3.8-0.5,5-1.6c1.2-1,1.9-2.4,1.9-4.2c0-3.9-2.8-5.9-8.4-5.9h-2.5v-2.9h2.4c4.9,0,7.4-1.8,7.4-5.5
		c0-3.4-1.9-5.1-5.6-5.1c-2.1,0-4.1,0.7-6,2.1v-3.3c1.9-1.1,4.2-1.7,6.8-1.7c2.5,0,4.5,0.7,6,2c1.5,1.3,2.3,3,2.3,5.2
		c0,3.9-2,6.5-6,7.6v0.1c2.1,0.2,3.8,1,5.1,2.3C293,109.3,293.7,110.9,293.7,112.9"/>
	<path class="st0" d="M316.2,111.8c0,1.9-0.4,3.6-1.2,5.2c-0.8,1.5-1.9,2.7-3.4,3.6c-1.4,0.9-3,1.3-4.8,1.3c-3,0-5.3-1.2-7.1-3.6
		c-1.7-2.4-2.6-5.8-2.6-10.1c0-3.4,0.5-6.5,1.5-9.1c1-2.6,2.4-4.7,4.3-6.1c1.9-1.4,4-2.1,6.4-2.1c2.1,0,3.7,0.3,5,0.9V95
		c-1.5-0.8-3.2-1.2-4.9-1.2c-2.6,0-4.8,1.2-6.4,3.6c-1.6,2.4-2.4,5.5-2.4,9.5h0.1c1.4-2.8,3.7-4.2,6.8-4.2c2.6,0,4.7,0.8,6.2,2.5
		C315.4,106.8,316.2,109.1,316.2,111.8 M312.7,112.3c0-2.1-0.5-3.7-1.5-5c-1-1.2-2.5-1.8-4.3-1.8c-1.7,0-3.1,0.6-4.2,1.8
		c-1.1,1.2-1.7,2.6-1.7,4.3c0,2.1,0.6,3.9,1.7,5.3c1.1,1.4,2.6,2.1,4.3,2.1c1.7,0,3.1-0.6,4.2-1.9
		C312.2,115.9,312.7,114.3,312.7,112.3"/>
	<path class="st0" d="M336.4,112.2c0,2.9-1,5.3-2.9,7c-1.9,1.8-4.5,2.7-7.7,2.7c-2.8,0-4.9-0.4-6.2-1.3V117c2,1.3,4.1,2,6.2,2
		c2.1,0,3.8-0.6,5.1-1.8c1.3-1.2,1.9-2.8,1.9-4.8c0-2-0.7-3.5-2-4.6c-1.3-1.1-3.2-1.7-5.7-1.7c-2,0-3.7,0.1-5.1,0.2l1-15H335v3.1
		h-10.9l-0.6,8.8l2.8-0.1c3.1,0,5.6,0.8,7.4,2.4C335.5,107.1,336.4,109.3,336.4,112.2"/>
	<polygon class="st0" points="150.9,127.2 150.9,127.2 150.9,85.6 136,81.3 109.2,91.4 109.2,91.4 109.2,121.4 118.3,117.9 
		118.3,93.4 136,89.2 136,125.1 109.2,121.4 136,131.3 136,131.3 150.9,127.2 150.9,127.2 	"/>
</g>
</svg>
