<?xml version="1.0" encoding="utf-8"?>
<!-- Generator: Adobe Illustrator 19.2.1, SVG Export Plug-In . SVG Version: 6.00 Build 0)  -->
<svg version="1.1" id="Layer_1" xmlns="http://www.w3.org/2000/svg" xmlns:xlink="http://www.w3.org/1999/xlink" x="0px" y="0px"
	 viewBox="0 0 168 118"  width="168" height="118" style="enable-background:new 0 0 168 118;" xml:space="preserve">
<style type="text/css">
	.st0{fill:#FFFFFF;}
	.st1{fill:#CCCCCC;}
	.st2{fill:#E5E5E5;}
	.st3{opacity:0.44;}
	.st4{fill:#1370CE;}
	.st5{fill:#CCCCCC;stroke:#FFFFFF;stroke-width:2;stroke-miterlimit:10;}
</style>
<g>
	<g>
		<path class="st0" d="M5.6,109.4h139.5c1,0,1.9-0.9,1.9-1.9v-97c0-1-0.9-1.9-1.9-1.9H22.7v20.1h-19v78.7
			C3.7,108.5,4.6,109.4,5.6,109.4z"/>
		<path class="st1" d="M145.1,6.3H22.7v1.2H23h122.2c1.7,0,3.1,1.4,3.1,3.1v97c0,1.7-1.4,3.1-3.1,3.1H5.6c-1.7,0-3.1-1.4-3.1-3.1
			V28.8H1.4v78.7c0,2.3,1.9,4.2,4.2,4.2h139.5c2.3,0,4.2-1.9,4.2-4.2v-97C149.4,8.2,147.5,6.3,145.1,6.3z"/>
		<path class="st1" d="M145.1,8.6c1,0,1.9,0.9,1.9,1.9v97c0,1-0.9,1.9-1.9,1.9H5.6c-1,0-1.9-0.9-1.9-1.9V28.8H2.6v78.7
			c0,1.7,1.4,3.1,3.1,3.1h139.5c1.7,0,3.1-1.4,3.1-3.1v-97c0-1.7-1.4-3.1-3.1-3.1H23h-0.3v1.2H145.1z"/>
		<polygon class="st1" points="1.4,27.6 1.4,27.6 1.4,27.6 		"/>
		<polygon class="st2" points="20.4,10.3 4.2,26.4 20.4,26.4 		"/>
		<polygon class="st1" points="3.7,25.3 20.4,8.6 20.4,7 1.4,26 3.7,23.7 		"/>
		<polygon class="st1" points="21.5,7.5 22.7,7.5 22.7,6.3 21.1,6.3 20.4,7 20.4,8.6 		"/>
		<polygon class="st1" points="21.5,27.6 3.7,27.6 3.7,28.8 22.7,28.8 22.7,8.6 22.7,7.5 21.5,7.5 		"/>
		<polygon class="st1" points="2.6,26.4 3.7,25.3 3.7,23.7 1.4,26 1.4,26.4 		"/>
		<polygon class="st1" points="2.6,27.6 2.6,27.6 1.4,27.6 1.4,28.8 2.6,28.8 		"/>
		<polygon class="st1" points="1.4,26.4 1.4,27.6 2.6,26.4 		"/>
		<polygon class="st1" points="3.7,27.6 2.6,27.6 2.6,27.6 2.6,28.8 3.7,28.8 		"/>
		<polygon class="st1" points="1.4,27.6 1.4,27.6 2.6,27.6 2.6,26.4 		"/>
		<polygon class="st1" points="4.2,26.4 20.4,10.3 20.4,8.6 3.7,25.3 3.7,26.4 		"/>
		<polygon class="st1" points="20.4,26.4 4.2,26.4 3.7,26.4 3.7,27.6 21.5,27.6 21.5,7.5 20.4,8.6 20.4,10.3 		"/>
		<polygon class="st1" points="3.7,25.3 2.6,26.4 3.7,26.4 		"/>
		<rect x="2.6" y="26.4" class="st1" width="1.2" height="1.2"/>
	</g>
	<g class="st3">
		<g>
			<g>
				<g>
					<rect x="35.6" y="22" class="st4" width="2.3" height="1.2"/>
				</g>
				<g>
					<path class="st4" d="M109.4,23.2h-4.5V22h4.5V23.2z M101.5,23.2H97V22h4.5V23.2z M93.5,23.2H89V22h4.5V23.2z M85.6,23.2h-4.5
						V22h4.5V23.2z M77.7,23.2h-4.5V22h4.5V23.2z M69.7,23.2h-4.5V22h4.5V23.2z M61.8,23.2h-4.5V22h4.5V23.2z M53.8,23.2h-4.5V22
						h4.5V23.2z M45.9,23.2h-4.5V22h4.5V23.2z"/>
				</g>
				<g>
					<rect x="112.9" y="22" class="st4" width="2.3" height="1.2"/>
				</g>
			</g>
			<g>
				<g>
					<rect x="35.6" y="33.5" class="st4" width="2.3" height="1.2"/>
				</g>
				<g>
					<path class="st4" d="M109.4,34.7h-4.5v-1.2h4.5V34.7z M101.5,34.7H97v-1.2h4.5V34.7z M93.5,34.7H89v-1.2h4.5V34.7z M85.6,34.7
						h-4.5v-1.2h4.5V34.7z M77.7,34.7h-4.5v-1.2h4.5V34.7z M69.7,34.7h-4.5v-1.2h4.5V34.7z M61.8,34.7h-4.5v-1.2h4.5V34.7z
						 M53.8,34.7h-4.5v-1.2h4.5V34.7z M45.9,34.7h-4.5v-1.2h4.5V34.7z"/>
				</g>
				<g>
					<rect x="112.9" y="33.5" class="st4" width="2.3" height="1.2"/>
				</g>
			</g>
			<g>
				<g>
					<rect x="35.6" y="76.7" class="st4" width="2.3" height="1.2"/>
				</g>
				<g>
					<path class="st4" d="M109.4,77.9h-4.5v-1.2h4.5V77.9z M101.5,77.9H97v-1.2h4.5V77.9z M93.5,77.9H89v-1.2h4.5V77.9z M85.6,77.9
						h-4.5v-1.2h4.5V77.9z M77.7,77.9h-4.5v-1.2h4.5V77.9z M69.7,77.9h-4.5v-1.2h4.5V77.9z M61.8,77.9h-4.5v-1.2h4.5V77.9z
						 M53.8,77.9h-4.5v-1.2h4.5V77.9z M45.9,77.9h-4.5v-1.2h4.5V77.9z"/>
				</g>
				<g>
					<rect x="112.9" y="76.7" class="st4" width="2.3" height="1.2"/>
				</g>
			</g>
			<g>
				<g>
					<rect x="35.6" y="95" class="st4" width="2.3" height="1.2"/>
				</g>
				<g>
					<path class="st4" d="M109.4,96.1h-4.5V95h4.5V96.1z M101.5,96.1H97V95h4.5V96.1z M93.5,96.1H89V95h4.5V96.1z M85.6,96.1h-4.5
						V95h4.5V96.1z M77.7,96.1h-4.5V95h4.5V96.1z M69.7,96.1h-4.5V95h4.5V96.1z M61.8,96.1h-4.5V95h4.5V96.1z M53.8,96.1h-4.5V95
						h4.5V96.1z M45.9,96.1h-4.5V95h4.5V96.1z"/>
				</g>
				<g>
					<rect x="112.9" y="95" class="st4" width="2.3" height="1.2"/>
				</g>
			</g>
		</g>
		<g>
			<g>
				<rect x="83.9" y="11.8" class="st4" width="1.2" height="2.3"/>
			</g>
			<g>
				<path class="st4" d="M85.1,100.5h-1.2v-4.5h1.2V100.5z M85.1,92.7h-1.2v-4.5h1.2V92.7z M85.1,84.8h-1.2v-4.5h1.2V84.8z M85.1,77
					h-1.2v-4.5h1.2V77z M85.1,69.1h-1.2v-4.5h1.2V69.1z M85.1,61.2h-1.2v-4.5h1.2V61.2z M85.1,53.4h-1.2v-4.5h1.2V53.4z M85.1,45.5
					h-1.2V41h1.2V45.5z M85.1,37.7h-1.2v-4.5h1.2V37.7z M85.1,29.8h-1.2v-4.5h1.2V29.8z M85.1,21.9h-1.2v-4.5h1.2V21.9z"/>
			</g>
			<g>
				<rect x="83.9" y="103.9" class="st4" width="1.2" height="2.3"/>
			</g>
		</g>
		<g>
			<g>
				<rect x="106.5" y="11.8" class="st4" width="1.2" height="2.3"/>
			</g>
			<g>
				<path class="st4" d="M107.7,100.5h-1.2v-4.5h1.2V100.5z M107.7,92.7h-1.2v-4.5h1.2V92.7z M107.7,84.8h-1.2v-4.5h1.2V84.8z
					 M107.7,77h-1.2v-4.5h1.2V77z M107.7,69.1h-1.2v-4.5h1.2V69.1z M107.7,61.2h-1.2v-4.5h1.2V61.2z M107.7,53.4h-1.2v-4.5h1.2V53.4
					z M107.7,45.5h-1.2V41h1.2V45.5z M107.7,37.7h-1.2v-4.5h1.2V37.7z M107.7,29.8h-1.2v-4.5h1.2V29.8z M107.7,21.9h-1.2v-4.5h1.2
					V21.9z"/>
			</g>
			<g>
				<rect x="106.5" y="103.9" class="st4" width="1.2" height="2.3"/>
			</g>
		</g>
		<g>
			<g>
				<rect x="65.7" y="11.8" class="st4" width="1.2" height="2.3"/>
			</g>
			<g>
				<path class="st4" d="M66.9,100.5h-1.2v-4.5h1.2V100.5z M66.9,92.7h-1.2v-4.5h1.2V92.7z M66.9,84.8h-1.2v-4.5h1.2V84.8z M66.9,77
					h-1.2v-4.5h1.2V77z M66.9,69.1h-1.2v-4.5h1.2V69.1z M66.9,61.2h-1.2v-4.5h1.2V61.2z M66.9,53.4h-1.2v-4.5h1.2V53.4z M66.9,45.5
					h-1.2V41h1.2V45.5z M66.9,37.7h-1.2v-4.5h1.2V37.7z M66.9,29.8h-1.2v-4.5h1.2V29.8z M66.9,21.9h-1.2v-4.5h1.2V21.9z"/>
			</g>
			<g>
				<rect x="65.7" y="103.9" class="st4" width="1.2" height="2.3"/>
			</g>
		</g>
		<g>
			<g>
				<rect x="42.7" y="11.8" class="st4" width="1.2" height="2.3"/>
			</g>
			<g>
				<path class="st4" d="M43.9,100.5h-1.2v-4.5h1.2V100.5z M43.9,92.7h-1.2v-4.5h1.2V92.7z M43.9,84.8h-1.2v-4.5h1.2V84.8z M43.9,77
					h-1.2v-4.5h1.2V77z M43.9,69.1h-1.2v-4.5h1.2V69.1z M43.9,61.2h-1.2v-4.5h1.2V61.2z M43.9,53.4h-1.2v-4.5h1.2V53.4z M43.9,45.5
					h-1.2V41h1.2V45.5z M43.9,37.7h-1.2v-4.5h1.2V37.7z M43.9,29.8h-1.2v-4.5h1.2V29.8z M43.9,21.9h-1.2v-4.5h1.2V21.9z"/>
			</g>
			<g>
				<rect x="42.7" y="103.9" class="st4" width="1.2" height="2.3"/>
			</g>
		</g>
	</g>
	<g>
		<g>
			<g>
				<path class="st2" d="M161.8,104.1h-27.3c-1.9,0-3.5-1.6-3.5-3.5V83.9h34.3v16.8C165.3,102.6,163.7,104.1,161.8,104.1z"/>
				<path class="st1" d="M161.8,105.3h-27.3c-2.6,0-4.7-2.1-4.7-4.7V82.7h36.6v17.9C166.5,103.2,164.4,105.3,161.8,105.3z M132.2,85
					v15.6c0,1.3,1.1,2.3,2.3,2.3h27.3c1.3,0,2.3-1.1,2.3-2.3V85H132.2z"/>
			</g>
			<g>
				<polygon class="st0" points="165.3,35.4 148.2,14.5 131,35.4 131,83.9 165.3,83.9 				"/>
				<path class="st1" d="M166.5,85h-36.6V35l18.3-22.3L166.5,35V85z M132.2,82.7h32V35.8l-16-19.5l-16,19.5V82.7z"/>
			</g>
			<g>
				<polygon class="st1" points="141.8,23 148.2,14.5 154.8,23 				"/>
			</g>
			<g>
				<g>
					<path class="st1" d="M139.7,45.7c-4.8,0-8.6-3.9-8.6-8.6h1.4v-1.5l-2.7,0.2v1.3c0,5.5,4.4,9.9,9.9,9.9c3.6,0,6.8-2,8.5-4.9
						c-0.3-0.5-0.5-0.9-0.7-1.4C146.1,43.7,143.2,45.7,139.7,45.7z"/>
				</g>
				<g>
					<path class="st1" d="M139.7,44.4c-3.6,0-6.6-2.6-7.2-6v-1.3h-1.4c0,4.8,3.9,8.6,8.6,8.6c3.5,0,6.4-2,7.8-5
						c-0.3-0.7-0.5-1.5-0.6-2.3C146.3,41.8,143.3,44.4,139.7,44.4z"/>
				</g>
				<g>
					<path class="st0" d="M149.5,38.4C149.5,38.4,149.5,38.4,149.5,38.4L149.5,38.4C149.5,38.4,149.5,38.4,149.5,38.4z"/>
				</g>
				<g>
					<path class="st1" d="M163.9,35.5v1.6h1.4c0,4.8-3.9,8.6-8.6,8.6c-3.5,0-6.4-2-7.8-5c-0.2,0.5-0.4,1-0.7,1.4
						c1.7,2.9,4.9,4.9,8.5,4.9c5.5,0,9.9-4.4,9.9-9.9v-1.3L163.9,35.5z"/>
				</g>
				<g>
					<path class="st1" d="M146.9,38.4C146.9,38.4,146.9,38.4,146.9,38.4L146.9,38.4C146.9,38.4,146.9,38.4,146.9,38.4z"/>
				</g>
				<g>
					<path class="st1" d="M148.2,38.4c-0.1,0.8-0.4,1.6-0.7,2.3c0.2,0.5,0.4,1,0.7,1.4c0.3-0.5,0.5-0.9,0.7-1.4
						C148.6,40,148.3,39.2,148.2,38.4z"/>
				</g>
				<g>
					<path class="st1" d="M146.9,38.4C146.9,38.4,146.9,38.4,146.9,38.4c0.1,0.8,0.3,1.6,0.6,2.3c0.3-0.7,0.6-1.5,0.7-2.3
						c0,0,0,0,0,0H146.9z"/>
				</g>
				<g>
					<path class="st1" d="M156.7,44.4c-3.6,0-6.6-2.6-7.2-6c-0.1,0.8-0.3,1.6-0.6,2.3c1.4,2.9,4.3,5,7.8,5c4.8,0,8.6-3.9,8.6-8.6
						h-1.4v1.3C163.3,41.8,160.3,44.4,156.7,44.4z"/>
				</g>
				<g>
					<path class="st1" d="M149.5,38.4h-1.3c0,0,0,0,0,0c0.1,0.8,0.4,1.6,0.7,2.3C149.2,40,149.4,39.2,149.5,38.4
						C149.5,38.4,149.5,38.4,149.5,38.4z"/>
				</g>
				<g>
					<polygon class="st1" points="148.2,38.4 148.2,38.4 148.2,38.4 					"/>
				</g>
			</g>
			<g>
				<rect x="147" y="40.3" class="st1" width="2.5" height="43.6"/>
			</g>
		</g>
		<g id="XMLID_2_">
			<g>
				<path class="st1" d="M104.4,48c7,2.3,12.1,9.1,12,16.6c-0.1,7.7-5.3,14.9-12.9,16.8c-3.4,0.8-7,0.6-10.4,0.6l-7.1,0l-18.6,0
					h-3.5c-3.6,0-7.4,0.3-10.9-0.3c-6.1-1.1-11.2-5.6-13.3-11.4c-2.1-5.9-0.8-12.8,3.4-17.5c3.7-4.1,9.1-6.1,14.4-5.7
					c1.5-5.6,5.6-10.2,11.3-12.1c6.4-2.2,13.1-0.3,17.8,4.2c3.7-1.7,8.2-1.6,11.7,0.6C101.5,41.6,103.6,44.6,104.4,48z M110,67.2
					c0.3-1.1,0.4-2.2,0.3-3.7c-0.4-5-4.3-9.1-9.4-10.2c-1.4-0.3-2.1-1.6-2.2-2.9c-0.1-2.3-1.4-4.5-3.6-5.6c-1.1-0.6-2.1-0.8-3.5-0.7
					c-1.5,0.1-2.7,0.7-3.9,1.5c-0.9,0.6-2.1,0.5-3.1,0c-1.2-0.6-1.9-2.1-3-2.9c-0.8-0.7-2.1-1.4-3.1-1.8c-2.5-0.9-5-1-7.4-0.2
					C66.7,42,63.4,46,63,50.5c-0.2,2-1.8,3.4-3.8,2.9c-5.3-1.4-10.5,0.9-13,5.4c-2.4,4.3-1.8,9.9,1.7,13.4c1.8,1.8,3.7,2.9,6.4,3.4
					c0.4,0.1,1.4,0.2,2.2,0.2h10.9c6.4,0,12.8,0,19.3,0c2.1,0,4.3,0,6.4,0c3.6,0,7.2,0.4,10.4-0.9c1.9-0.8,4-2.5,5.1-4.3
					C109.3,69.4,109.7,68.7,110,67.2z"/>
				<path class="st0" d="M110.3,63.5c0.1,1.4,0,2.6-0.3,3.7c-0.3,1.5-0.7,2.2-1.5,3.5c-1.1,1.8-3.2,3.5-5.1,4.3
					c-3.2,1.3-6.7,0.9-10.4,0.9c-2.1,0-4.3,0-6.4,0c-6.4,0-12.8,0-19.3,0H56.4c-0.8,0-1.8-0.1-2.2-0.2c-2.6-0.5-4.6-1.6-6.4-3.4
					c-3.4-3.5-4-9.1-1.7-13.4c2.5-4.5,7.7-6.8,13-5.4c2,0.5,3.7-1,3.8-2.9c0.4-4.5,3.7-8.6,8.1-9.9c2.4-0.7,4.9-0.6,7.4,0.2
					c1,0.3,2.3,1.1,3.1,1.8c1.1,0.9,1.8,2.3,3,2.9c0.9,0.5,2.2,0.6,3.1,0c1.2-0.8,2.4-1.4,3.9-1.5c1.4-0.1,2.5,0.2,3.5,0.7
					c2.2,1.1,3.5,3.3,3.6,5.6c0.1,1.3,0.9,2.6,2.2,2.9C106,54.4,109.9,58.5,110.3,63.5z"/>
			</g>
			<g>
			</g>
		</g>
		<path class="st5" d="M104.3,48c-0.8-3.4-2.9-6.3-6-8.2c-3.5-2.1-8-2.2-11.7-0.6c-4.7-4.5-11.4-6.4-17.8-4.2
			c-5.7,1.9-9.7,6.5-11.3,12.1c-5.4-0.4-10.8,1.6-14.4,5.7c-4.2,4.7-5.6,11.5-3.5,17.5c2.1,5.8,7.2,10.3,13.3,11.4
			c3.5,0.6,7.3,0.3,10.9,0.3h3.5l18.6,0l7.1,0c3.5,0,7,0.3,10.4-0.6c7.6-1.9,12.8-9,12.9-16.8C116.5,57.1,111.3,50.3,104.3,48z
			 M110,67.2c-0.3,1.5-0.7,2.2-1.5,3.5c-1.1,1.8-3.2,3.5-5.1,4.3c-3.2,1.3-6.7,0.9-10.4,0.9c-2.1,0-4.3,0-6.4,0
			c-6.4,0-12.8,0-19.2,0H56.4c-0.8,0-1.8-0.1-2.2-0.2c-2.6-0.5-4.6-1.6-6.4-3.4c-3.4-3.5-4-9.1-1.7-13.4c2.5-4.5,7.7-6.8,13-5.4
			c2,0.5,3.7-1,3.8-2.9c0.4-4.5,3.7-8.6,8.1-9.9c2.4-0.7,4.9-0.6,7.4,0.2c1,0.3,2.3,1.1,3.1,1.8c1.1,0.9,1.8,2.3,3,2.9
			c0.9,0.5,2.2,0.6,3.1,0c1.2-0.8,2.4-1.4,3.9-1.5c1.4-0.1,2.5,0.2,3.5,0.7c2.2,1.1,3.5,3.3,3.6,5.6c0.1,1.3,0.9,2.6,2.2,2.9
			c5.1,1.1,9,5.2,9.4,10.2C110.4,64.9,110.3,66,110,67.2z"/>
	</g>
</g>
</svg>
